<?xml version="1.0" encoding="UTF-8"?>
<svg width="387px" height="245px" viewBox="0 0 387 245" version="1.1" xmlns="http://www.w3.org/2000/svg" xmlns:xlink="http://www.w3.org/1999/xlink">
    <!-- Generator: Sketch 62 (91390) - https://sketch.com -->
    <title>Group 5</title>
    <desc>Created with Sketch.</desc>
    <g id="RoomBooking_User_Web" stroke="none" stroke-width="1" fill="none" fill-rule="evenodd">
        <g id="040_MotherApp_Web_User_v1.8-Copy" transform="translate(-657.000000, -347.000000)">
            <g id="Group-5" transform="translate(656.500000, 347.000000)">
                <g id="Group-2" transform="translate(19.500000, 0.000000)" fill="#D8D8D8">
                    <rect id="Rectangle" x="93" y="0" width="154" height="18" rx="8.5"></rect>
                    <rect id="Rectangle-Copy-2" x="59" y="34" width="219" height="22" rx="8.5"></rect>
                    <rect id="Rectangle-Copy-8" x="133" y="132" width="173" height="18" rx="8.5"></rect>
                    <rect id="Rectangle-Copy-10" x="81" y="170" width="219" height="18" rx="8.5"></rect>
                    <rect id="Rectangle-Copy-11" x="0" y="190" width="219" height="18" rx="8.5"></rect>
                    <rect id="Rectangle-Copy-13" x="77" y="227" width="121" height="18" rx="8.5"></rect>
                    <path d="M102.444444,115 C107.138865,115 110.944444,118.80558 110.944444,123.5 L110.944444,124.785714 C110.944444,129.480135 107.138865,133.285714 102.444444,133.285714 L95.5277778,133.285714 C90.9187105,133.285714 87.1664563,136.954167 87.0315344,141.530554 L87.0277778,141.785714 L87.0277778,145.357143 C87.0277778,148.499802 88.7332769,151.244121 91.2692035,152.715028 L127.5,152.714286 C132.19442,152.714286 136,156.519865 136,161.214286 L136,162.5 C136,167.19442 132.19442,171 127.5,171 L46.5555556,171 C41.8611352,171 38.0555556,167.19442 38.0555556,162.5 L38.0555556,161.214286 C38.0555556,158.425935 39.3981713,155.951169 41.4721878,154.401202 L41.4723333,153.856714 L42.2971623,153.856296 C43.5492941,153.130067 45.0038694,152.714286 46.5555556,152.714286 L50.8974631,152.715028 C53.4333898,151.244121 55.1388889,148.499802 55.1388889,145.357143 L55.1388889,145.357143 L55.1388889,141.785714 L55.1351323,141.530554 C55.0002103,136.954167 51.2479562,133.285714 46.6388889,133.285714 L46.6388889,133.285714 L21.5,133.285714 C16.8055796,133.285714 13,129.480135 13,124.785714 L13,123.5 C13,118.80558 16.8055796,115 21.5,115 L102.444444,115 Z" id="Combined-Shape"></path>
                    <rect id="Rectangle-Copy-4" x="289" y="34" width="36" height="22" rx="8.5"></rect>
                    <rect id="Rectangle-Copy-6" x="322" y="132" width="46" height="18" rx="8.5"></rect>
                    <rect id="Rectangle-Copy-7" x="216" y="210" width="35" height="18" rx="8.5"></rect>
                    <path d="M170,9 L170,45 L127.000392,45 L126.999649,34.8594938 C131.41936,34.5929784 134.921373,30.9242087 134.921373,26.4375 C134.921373,21.9507913 131.41936,18.2820216 126.999649,18.0155062 L127.000392,9 L170,9 Z" id="Combined-Shape"></path>
                    <path d="M211.999909,9 L211.999909,45 L170,45 L170.000299,34.7182683 C173.881681,33.9600436 176.810796,30.5408376 176.810796,26.4375 C176.810796,22.3341624 173.881681,18.9149564 170.000299,18.1567317 L170,9 L211.999909,9 Z" id="Combined-Shape-Copy-2" transform="translate(190.999954, 27.000000) scale(-1, 1) translate(-190.999954, -27.000000) "></path>
                    <path d="M273,140 L273,182 L231,182 L231.000149,169.34564 C234.885268,168.562205 237.810811,165.129508 237.810811,161.013514 L237.810811,161.013514 L237.810811,158.716216 C237.810811,154.600222 234.885268,151.167524 231.000149,150.38409 L231,140 L273,140 Z" id="Combined-Shape-Copy-3" transform="translate(252.000000, 161.000000) scale(-1, 1) translate(-252.000000, -161.000000) "></path>
                    <path d="M237,140 L237,182 L195,182 L195.000149,169.34564 C198.885268,168.562205 201.810811,165.129508 201.810811,161.013514 L201.810811,161.013514 L201.810811,158.716216 C201.810811,154.600222 198.885268,151.167524 195.000149,150.38409 L195,140 L237,140 Z" id="Combined-Shape-Copy-4"></path>
                    <path d="M165,197 L165,243 L123,243 L123.000149,229.156451 C126.885268,228.373016 129.810811,224.940319 129.810811,220.824324 L129.810811,220.824324 L129.810811,216.689189 C129.810811,212.573195 126.885268,209.140497 123.000149,208.357063 L123,197 L165,197 Z" id="Combined-Shape-Copy-6" transform="translate(144.000000, 220.000000) scale(-1, 1) translate(-144.000000, -220.000000) "></path>
                    <path d="M129,197 L129,243 L87,243 L87.000149,229.156451 C90.8852683,228.373016 93.8108108,224.940319 93.8108108,220.824324 L93.8108108,220.824324 L93.8108108,216.689189 C93.8108108,212.573195 90.8852683,209.140497 87.000149,208.357063 L87,197 L129,197 Z" id="Combined-Shape-Copy-5"></path>
                </g>
                <g id="Group-4" transform="translate(101.500000, 13.000000)">
                    <rect id="Rectangle" stroke="#979797" stroke-width="2" fill="#FFFFFF" x="0" y="0" width="161" height="164" rx="2"></rect>
                    <rect id="Rectangle-Copy-5" stroke="#D2D2D2" stroke-width="2" x="10" y="12" width="140" height="56" rx="2"></rect>
                    <rect id="Rectangle" fill="#FBE2E2" x="13" y="82" width="133" height="14" rx="3"></rect>
                    <rect id="Rectangle-Copy" fill="#F4FCFF" x="13" y="103" width="133" height="13"></rect>
                    <rect id="Rectangle-Copy-3" fill="#FBE2E2" x="13" y="123" width="133" height="14" rx="3"></rect>
                    <g id="Icon-24px" transform="translate(57.000000, 28.000000)">
                        <polygon id="Shape" points="0 0 24 0 24 24 0 24"></polygon>
                        <path d="M23,21.35 L21.55,20.03 C16.4,15.36 13,12.28 13,8.5 C13,5.42 15.42,3 18.5,3 C20.24,3 21.91,3.81 23,5.09 C24.09,3.81 25.76,3 27.5,3 C30.58,3 33,5.42 33,8.5 C33,12.28 29.6,15.36 24.45,20.04 L23,21.35 L23,21.35 Z" id="Shape" fill="#828282"></path>
                    </g>
                </g>
                <circle id="Oval" stroke="#D9B8B8" stroke-width="2" cx="65.5" cy="90" r="7"></circle>
                <circle id="Oval-Copy" stroke="#A5CADC" stroke-width="2" cx="300.5" cy="8" r="7"></circle>
                <g id="Group-3" transform="translate(325.500000, 112.000000)" fill="#D9B8B8">
                    <rect id="Rectangle-Copy-7" x="11.4" y="0" width="1.92" height="7.04" rx="0.96"></rect>
                    <rect id="Rectangle-Copy-6" x="11.4" y="14.08" width="1.92" height="7.04" rx="0.96"></rect>
                    <g id="Group-2-Copy" transform="translate(11.920000, 10.600000) rotate(90.000000) translate(-11.920000, -10.600000) translate(10.920000, -0.400000)">
                        <rect id="Rectangle-Copy-4" x="0" y="0" width="1.92" height="7.04" rx="0.96"></rect>
                        <rect id="Rectangle-Copy-2" x="0" y="14.08" width="1.92" height="7.04" rx="0.96"></rect>
                    </g>
                </g>
                <g id="Group-3-Copy" transform="translate(292.000000, 97.000000) rotate(41.000000) translate(-292.000000, -97.000000) translate(280.500000, 86.000000)" fill="#D9B8B8">
                    <rect id="Rectangle-Copy-7" x="11.4" y="0" width="1.92" height="7.04" rx="0.96"></rect>
                    <rect id="Rectangle-Copy-6" x="11.4" y="14.08" width="1.92" height="7.04" rx="0.96"></rect>
                    <g id="Group-2-Copy" transform="translate(11.920000, 10.600000) rotate(90.000000) translate(-11.920000, -10.600000) translate(10.920000, -0.400000)">
                        <rect id="Rectangle-Copy-4" x="0" y="0" width="1.92" height="7.04" rx="0.96"></rect>
                        <rect id="Rectangle-Copy-2" x="0" y="14.08" width="1.92" height="7.04" rx="0.96"></rect>
                    </g>
                </g>
                <rect id="Rectangle" fill="#D9B8B8" x="18" y="28" width="4" height="13" rx="2"></rect>
                <rect id="Rectangle-Copy" fill="#D9B8B8" x="18" y="54" width="4" height="13" rx="2"></rect>
                <g id="Group-2" transform="translate(20.000000, 47.500000) rotate(90.000000) translate(-20.000000, -47.500000) translate(18.000000, 28.000000)" fill="#D9B8B8">
                    <rect id="Rectangle-Copy-4" x="0" y="0" width="4" height="13" rx="2"></rect>
                    <rect id="Rectangle-Copy-2" x="0" y="26" width="4" height="13" rx="2"></rect>
                </g>
            </g>
        </g>
    </g>
</svg>