<?xml version="1.0" encoding="UTF-8"?>
<svg width="21px" height="6px" viewBox="0 0 21 6" version="1.1" xmlns="http://www.w3.org/2000/svg" xmlns:xlink="http://www.w3.org/1999/xlink">
    <!-- Generator: Sketch 64 (93537) - https://sketch.com -->
    <title>Group 9 Copy</title>
    <desc>Created with Sketch.</desc>
    <g id="Page-1" stroke="none" stroke-width="1" fill="none" fill-rule="evenodd">
        <g id="Apple-TV" transform="translate(-1315.000000, -865.000000)">
            <g id="Group-9-Copy" transform="translate(1314.000000, 856.000000)">
                <rect id="Rectangle-Copy-5" fill="#D8D8D8" opacity="0" x="0" y="0" width="24" height="24"></rect>
                <g id="ic_more-copy-4">
                    <g id="group" transform="translate(0.920000, 9.200000)" stroke="#000000" stroke-width="1.5">
                        <circle id="oval" cx="18.4558781" cy="2.53" r="1.78"></circle>
                        <circle id="oval" cx="10.5984" cy="2.53" r="1.78"></circle>
                        <circle id="oval" cx="2.81587814" cy="2.53" r="1.78"></circle>
                    </g>
                    <rect id="bounds" x="0" y="0" width="23" height="23"></rect>
                </g>
            </g>
        </g>
    </g>
</svg>