<?xml version="1.0" encoding="UTF-8"?>
<svg width="18px" height="20px" viewBox="0 0 18 20" version="1.1" xmlns="http://www.w3.org/2000/svg" xmlns:xlink="http://www.w3.org/1999/xlink">
    <!-- Generator: sketchtool 62 (101010) - https://sketch.com -->
    <title>4756A84C-736C-44A6-8C2B-353D993F93C6</title>
    <desc>Created with sketchtool.</desc>
    <g id="RoomBooking_User_Web" stroke="none" stroke-width="1" fill="none" fill-rule="evenodd">
        <g id="052_MotherApp_Web_User_v1.8" transform="translate(-1361.000000, -215.000000)" fill="#1A2F5A" fill-rule="nonzero">
            <g id="126468-copy-4" transform="translate(1361.000000, 215.000000)">
                <path d="M17.4382802,2.86314058 L13.2274619,2.86314058 L13.2274619,2.18825744 C13.2274619,0.981648199 12.2288488,0 11.001387,0 L6.99861304,0 C5.77115118,0 4.77253814,0.981648199 4.77253814,2.18825744 L4.77253814,2.86314058 L0.561719834,2.86314058 C0.249653259,2.86314058 0,3.10855263 0,3.41531769 C0,3.72208276 0.249653259,3.96749481 0.561719834,3.96749481 L1.57697642,3.96749481 L1.57697642,16.9416118 C1.57697642,18.5695118 2.92510402,19.8947368 4.58113731,19.8947368 L13.4188627,19.8947368 C15.074896,19.8947368 16.4230236,18.5695118 16.4230236,16.9416118 L16.4230236,3.96749481 L17.4382802,3.96749481 C17.7503467,3.96749481 18,3.72208276 18,3.41531769 C18,3.10855263 17.7503467,2.86314058 17.4382802,2.86314058 Z M5.89597781,2.18825744 C5.89597781,1.59108812 6.39112344,1.10435422 6.99861304,1.10435422 L11.001387,1.10435422 C11.6088766,1.10435422 12.1040222,1.59108812 12.1040222,2.18825744 L12.1040222,2.86314058 L5.89597781,2.86314058 L5.89597781,2.18825744 Z M15.2995839,16.9416118 C15.2995839,17.9600718 14.4549237,18.7903826 13.4188627,18.7903826 L4.58113731,18.7903826 C3.54507628,18.7903826 2.70041609,17.9600718 2.70041609,16.9416118 L2.70041609,3.96749481 L15.3037448,3.96749481 L15.3037448,16.9416118 L15.2995839,16.9416118 Z" id="Shape"></path>
                <path d="M9,16.1052632 C9.26315789,16.1052632 9.47368421,15.8698478 9.47368421,15.5755786 L9.47368421,6.21389505 C9.47368421,5.91962587 9.26315789,5.68421053 9,5.68421053 C8.73684211,5.68421053 8.52631579,5.91962587 8.52631579,6.21389505 L8.52631579,15.571655 C8.52631579,15.8659242 8.73684211,16.1052632 9,16.1052632 Z" id="Path"></path>
                <path d="M5.21052632,16.1052632 C5.47368421,16.1052632 5.68421053,15.8643047 5.68421053,15.5631066 L5.68421053,7.17373553 C5.68421053,6.87253743 5.47368421,6.63157895 5.21052632,6.63157895 C4.94736842,6.63157895 4.73684211,6.87253743 4.73684211,7.17373553 L4.73684211,15.5631066 C4.73684211,15.8643047 4.95087719,16.1052632 5.21052632,16.1052632 Z" id="Path"></path>
                <path d="M12.7894737,16.1052632 C13.0526316,16.1052632 13.2631579,15.8643047 13.2631579,15.5631066 L13.2631579,7.17373553 C13.2631579,6.87253743 13.0526316,6.63157895 12.7894737,6.63157895 C12.5263158,6.63157895 12.3157895,6.87253743 12.3157895,7.17373553 L12.3157895,15.5631066 C12.3157895,15.8643047 12.5263158,16.1052632 12.7894737,16.1052632 Z" id="Path"></path>
            </g>
        </g>
    </g>
</svg>