<?xml version="1.0" encoding="UTF-8"?>
<svg width="20px" height="20px" viewBox="0 0 20 20" version="1.1" xmlns="http://www.w3.org/2000/svg" xmlns:xlink="http://www.w3.org/1999/xlink">
    <!-- Generator: sketchtool 62 (101010) - https://sketch.com -->
    <title>A8E5C14B-7F4E-43E3-AA00-DDA840421A97</title>
    <desc>Created with sketchtool.</desc>
    <g id="RoomBooking_User_Web" stroke="none" stroke-width="1" fill="none" fill-rule="evenodd">
        <g id="06_MotherApp_Web_User_v1.8" transform="translate(-1192.000000, -301.000000)">
            <g id="Group-10" transform="translate(1176.000000, 67.000000)">
                <g id="ic_input-copy" transform="translate(16.000000, 234.000000)">
                    <g id="Icon-24px">
                        <polygon id="Shape" points="0 0 20 0 20 20 0 20"></polygon>
                        <path d="M17.5,2.50833333 L2.5,2.50833333 C1.58333333,2.50833333 0.833333333,3.25833333 0.833333333,4.175 L0.833333333,7.5 L2.5,7.5 L2.5,4.15833333 L17.5,4.15833333 L17.5,15.85 L2.5,15.85 L2.5,12.5 L0.833333333,12.5 L0.833333333,15.8416667 C0.833333333,16.7583333 1.58333333,17.4916667 2.5,17.4916667 L17.5,17.4916667 C18.4166667,17.4916667 19.1666667,16.7583333 19.1666667,15.8416667 L19.1666667,4.175 C19.1666667,3.25 18.4166667,2.50833333 17.5,2.50833333 L17.5,2.50833333 Z M9.16666667,13.3333333 L12.5,10 L9.16666667,6.66666667 L9.16666667,9.16666667 L0.833333333,9.16666667 L0.833333333,10.8333333 L9.16666667,10.8333333 L9.16666667,13.3333333 L9.16666667,13.3333333 Z" id="Shape" fill="#556080"></path>
                    </g>
                </g>
            </g>
        </g>
    </g>
</svg>