<?xml version="1.0" encoding="UTF-8"?>
<svg width="138px" height="44px" viewBox="0 0 138 44" version="1.1" xmlns="http://www.w3.org/2000/svg" xmlns:xlink="http://www.w3.org/1999/xlink">
    <!-- Generator: sketchtool 61.2 (101010) - https://sketch.com -->
    <title>D1EACB80-E9BE-4DB5-B423-E9A0776AB575</title>
    <desc>Created with sketchtool.</desc>
    <g id="RoomBooking_User_Web" stroke="none" stroke-width="1" fill="none" fill-rule="evenodd">
        <g id="04_MotherApp_Web_User_v1.8" transform="translate(-83.000000, -13.000000)" fill-rule="nonzero">
            <g id="header">
                <g id="BridgeUX_SVG" transform="translate(83.000000, 13.000000)">
                    <g id="XMLID_1_" transform="translate(40.166277, 33.498357)" fill="#898989" stroke="#898989" stroke-width="0.5">
                        <path d="M1.03193992,3.57209971 L0.222263982,3.57209971 C0.12700799,3.57209971 0.0793799936,3.52447172 0.0793799936,3.42921572 L0.0793799936,0.238139981 C0.0793799936,0.142883989 0.12700799,0.0952559923 0.222263982,0.0952559923 L1.03193992,0.0952559923 C1.3018319,0.0952559923 1.53997188,0.142883989 1.73048386,0.222263982 C1.92099585,0.301643976 2.07975583,0.428651966 2.19088782,0.603287951 C2.30201981,0.762047939 2.38139981,0.952559923 2.4290278,1.14307191 C2.4766558,1.33358389 2.5084078,1.57172387 2.5084078,1.84161585 C2.5084078,2.09563183 2.4766558,2.33377181 2.4290278,2.5401598 C2.38139981,2.74654778 2.30201981,2.92118377 2.19088782,3.07994375 C2.07975583,3.23870374 1.93687184,3.36571173 1.73048386,3.46096772 C1.53997188,3.52447172 1.3018319,3.57209971 1.03193992,3.57209971 Z M0.396899968,0.381023969 L0.396899968,3.28633174 L1.04781592,3.28633174 C1.79398786,3.28633174 2.15913583,2.81005177 2.15913583,1.84161585 C2.15913583,0.87317993 1.79398786,0.396899968 1.04781592,0.396899968 L0.396899968,0.396899968 L0.396899968,0.381023969 Z" id="XMLID_58_"></path>
                        <path d="M8.00150336,0.381023969 L8.00150336,1.61935187 L9.39859124,1.61935187 C9.49384724,1.61935187 9.54147523,1.66697987 9.54147523,1.74635986 L9.54147523,1.76223586 C9.54147523,1.85749185 9.49384724,1.88924385 9.39859124,1.88924385 L8.00150336,1.88924385 L8.00150336,3.27045574 L9.57322723,3.27045574 C9.66848322,3.27045574 9.71611122,3.31808373 9.71611122,3.39746373 L9.71611122,3.41333973 C9.71611122,3.50859572 9.66848322,3.54034772 9.57322723,3.54034772 L7.82686737,3.54034772 C7.73161138,3.54034772 7.68398338,3.49271972 7.68398338,3.39746373 L7.68398338,0.206387983 C7.68398338,0.111131991 7.73161138,0.0635039949 7.82686737,0.0635039949 L9.57322723,0.0635039949 C9.66848322,0.0635039949 9.71611122,0.111131991 9.71611122,0.190511985 L9.71611122,0.206387983 C9.71611122,0.301643976 9.66848322,0.333395973 9.57322723,0.333395973 L8.00150336,0.333395973 L8.00150336,0.381023969 Z" id="XMLID_93_"></path>
                        <path d="M15.7648667,3.33395973 C16.3999067,3.33395973 16.7015507,3.07994375 16.7015507,2.57191179 C16.7015507,2.33377181 16.6539227,2.17501183 16.5427907,2.09563183 C16.4316587,2.01625184 16.2252707,1.95274784 15.9236267,1.90511985 C15.4949748,1.85749185 15.2092068,1.76223586 15.0345708,1.63522787 C14.8599348,1.50821988 14.7805548,1.3018319 14.7805548,1.01606392 C14.7805548,0.920807926 14.7964308,0.841427932 14.8123068,0.762047939 C14.8281828,0.682667945 14.8599348,0.587411953 14.9234388,0.508031959 C14.9710668,0.412775967 15.0345708,0.333395973 15.1298268,0.269891978 C15.2092068,0.206387983 15.3203388,0.158759987 15.4632228,0.111131991 C15.6061067,0.0635039949 15.7648667,0.0476279962 15.9553787,0.0476279962 C16.2570227,0.0476279962 16.5110387,0.0793799936 16.7333027,0.158759987 C16.8126826,0.190511985 16.8603106,0.238139981 16.8603106,0.317519974 L16.8603106,0.381023969 C16.8603106,0.412775967 16.8444346,0.444527964 16.8126826,0.460403963 C16.7809307,0.476279962 16.7491787,0.476279962 16.6856747,0.460403963 C16.4951627,0.381023969 16.2411467,0.349271972 15.9395027,0.349271972 C15.6219827,0.349271972 15.3997188,0.412775967 15.2727108,0.539783957 C15.1457028,0.666791946 15.0821988,0.825551934 15.0821988,1.03193992 C15.0821988,1.12719591 15.0980748,1.2065759 15.1139508,1.2859559 C15.1457028,1.34945989 15.1774548,1.41296389 15.2092068,1.44471588 C15.2409588,1.49234388 15.3044628,1.52409588 15.3838428,1.53997188 C15.4632228,1.57172387 15.5426028,1.58759987 15.6061067,1.60347587 C15.6696107,1.61935187 15.7807427,1.63522787 15.9077507,1.65110387 C16.2887747,1.69873186 16.5745427,1.79398786 16.7491787,1.92099585 C16.9238146,2.04800384 17.0190706,2.27026782 17.0190706,2.58778779 C17.0190706,2.71479578 17.0031946,2.84180377 16.9555666,2.95293576 C16.9079386,3.06406775 16.8603106,3.17519974 16.7650547,3.28633174 C16.6697987,3.39746373 16.5427907,3.47684372 16.3681547,3.54034772 C16.1935187,3.60385171 15.9871307,3.63560371 15.7331147,3.63560371 C15.4473468,3.63560371 15.1615788,3.58797571 14.8758108,3.49271972 C14.7964308,3.46096772 14.7488028,3.41333973 14.7488028,3.33395973 L14.7488028,3.28633174 C14.7488028,3.25457974 14.7646788,3.22282774 14.7805548,3.20695174 C14.8123068,3.19107574 14.8440588,3.19107574 14.8916868,3.20695174 C15.2092068,3.28633174 15.4790988,3.33395973 15.7648667,3.33395973 Z" id="XMLID_99_"></path>
                        <path d="M22.6074222,0.238139981 L22.6074222,3.42921572 C22.6074222,3.52447172 22.5597942,3.57209971 22.4645382,3.57209971 L22.4169102,3.57209971 C22.3216542,3.57209971 22.2740262,3.52447172 22.2740262,3.42921572 L22.2740262,0.238139981 C22.2740262,0.142883989 22.3216542,0.0952559923 22.4169102,0.0952559923 L22.4645382,0.0952559923 C22.5597942,0.0952559923 22.6074222,0.142883989 22.6074222,0.238139981 Z" id="XMLID_103_"></path>
                        <path d="M29.4182256,1.74635986 L30.1802736,1.74635986 C30.2755296,1.74635986 30.3231576,1.79398786 30.3231576,1.88924385 L30.3231576,3.31808373 C30.3231576,3.39746373 30.2755296,3.44509172 30.1961496,3.47684372 C29.9421336,3.57209971 29.6246136,3.61972771 29.2435896,3.61972771 C28.9895737,3.61972771 28.7831857,3.57209971 28.5926737,3.47684372 C28.4021617,3.38158773 28.2751537,3.25457974 28.1640217,3.09581975 C28.0528897,2.93705976 27.9893857,2.74654778 27.9417578,2.5401598 C27.8941298,2.33377181 27.8782538,2.09563183 27.8782538,1.84161585 C27.8782538,1.58759987 27.8941298,1.34945989 27.9417578,1.14307191 C27.9893857,0.936683925 28.0687657,0.74617194 28.1640217,0.587411953 C28.2592777,0.412775967 28.4021617,0.285767977 28.5926737,0.206387983 C28.7831857,0.111131991 28.9895737,0.0635039949 29.2435896,0.0635039949 C29.5611096,0.0635039949 29.8468776,0.111131991 30.1008936,0.206387983 C30.1802736,0.238139981 30.2279016,0.285767977 30.2279016,0.365147971 L30.2279016,0.444527964 C30.2279016,0.476279962 30.2120256,0.508031959 30.1961496,0.523907958 C30.1643976,0.539783957 30.1326456,0.539783957 30.0850176,0.523907958 C29.8151256,0.412775967 29.5293576,0.365147971 29.2594656,0.365147971 C28.8943177,0.365147971 28.6403017,0.508031959 28.4656657,0.777923937 C28.3069057,1.04781592 28.2116497,1.41296389 28.2116497,1.87336785 C28.2116497,2.33377181 28.2910297,2.69891978 28.4656657,2.96881176 C28.6244257,3.23870374 28.8943177,3.38158773 29.2594656,3.38158773 C29.6246136,3.38158773 29.8786296,3.34983573 30.0056376,3.28633174 L30.0056376,2.09563183 L29.4182256,2.09563183 C29.3229696,2.09563183 29.2753416,2.04800384 29.2753416,1.96862384 L29.2753416,1.95274784 C29.2753416,1.79398786 29.3229696,1.74635986 29.4182256,1.74635986 Z" id="XMLID_107_"></path>
                        <path d="M35.8480051,0.158759987 L37.673745,2.93705976 L37.657869,0.25401598 C37.657869,0.158759987 37.705497,0.111131991 37.800753,0.111131991 L37.832505,0.111131991 C37.9277609,0.111131991 37.9753889,0.158759987 37.9753889,0.25401598 L37.9753889,3.44509172 C37.9753889,3.54034772 37.9277609,3.58797571 37.832505,3.58797571 L37.816629,3.58797571 C37.769001,3.58797571 37.721373,3.57209971 37.705497,3.52447172 L35.8797571,0.74617194 L35.8956331,3.42921572 C35.8956331,3.52447172 35.8480051,3.57209971 35.7527491,3.57209971 L35.7209971,3.57209971 C35.6257411,3.57209971 35.5781131,3.52447172 35.5781131,3.42921572 L35.5781131,0.238139981 C35.5781131,0.142883989 35.6257411,0.0952559923 35.7209971,0.0952559923 L35.7368731,0.0952559923 C35.7686251,0.0952559923 35.8162531,0.111131991 35.8480051,0.158759987 Z" id="XMLID_109_"></path>
                        <path d="M51.9303918,3.33395973 C52.5654318,3.33395973 52.8670757,3.07994375 52.8670757,2.57191179 C52.8670757,2.33377181 52.8194478,2.17501183 52.7083158,2.09563183 C52.5971838,2.01625184 52.3907958,1.95274784 52.0891518,1.90511985 C51.6604998,1.85749185 51.3747319,1.76223586 51.2000959,1.63522787 C51.0254599,1.50821988 50.9460799,1.3018319 50.9460799,1.01606392 C50.9460799,0.920807926 50.9619559,0.841427932 50.9778319,0.762047939 C50.9937079,0.682667945 51.0254599,0.587411953 51.0889639,0.508031959 C51.1365919,0.412775967 51.2000959,0.333395973 51.2953519,0.269891978 C51.3747319,0.206387983 51.4858639,0.158759987 51.6287478,0.111131991 C51.7716318,0.0635039949 51.9303918,0.0476279962 52.1209038,0.0476279962 C52.4225478,0.0476279962 52.6765638,0.0793799936 52.8988277,0.158759987 C52.9782077,0.190511985 53.0258357,0.238139981 53.0258357,0.317519974 L53.0258357,0.381023969 C53.0258357,0.412775967 53.0099597,0.444527964 52.9782077,0.460403963 C52.9464557,0.476279962 52.9147037,0.476279962 52.8511997,0.460403963 C52.6606878,0.381023969 52.4066718,0.349271972 52.1050278,0.349271972 C51.7875078,0.349271972 51.5652439,0.412775967 51.4382359,0.539783957 C51.3112279,0.666791946 51.2477239,0.825551934 51.2477239,1.03193992 C51.2477239,1.12719591 51.2635999,1.2065759 51.2794759,1.2859559 C51.3112279,1.34945989 51.3429799,1.41296389 51.3747319,1.44471588 C51.4064839,1.49234388 51.4699879,1.52409588 51.5493679,1.53997188 C51.6287478,1.57172387 51.7081278,1.58759987 51.7716318,1.60347587 C51.8351358,1.61935187 51.9462678,1.63522787 52.0732758,1.65110387 C52.4542998,1.69873186 52.7400678,1.79398786 52.9147037,1.92099585 C53.0893397,2.04800384 53.1845957,2.27026782 53.1845957,2.58778779 C53.1845957,2.71479578 53.1687197,2.84180377 53.1210917,2.95293576 C53.0734637,3.06406775 53.0258357,3.17519974 52.9305797,3.28633174 C52.8353238,3.39746373 52.7083158,3.47684372 52.5336798,3.54034772 C52.3590438,3.60385171 52.1526558,3.63560371 51.8986398,3.63560371 C51.6128718,3.63560371 51.3271039,3.58797571 51.0413359,3.49271972 C50.9619559,3.46096772 50.9143279,3.41333973 50.9143279,3.33395973 L50.9143279,3.28633174 C50.9143279,3.25457974 50.9302039,3.22282774 50.9460799,3.20695174 C50.9778319,3.19107574 51.0095839,3.19107574 51.0572119,3.20695174 C51.3747319,3.28633174 51.6604998,3.33395973 51.9303918,3.33395973 Z" id="XMLID_113_"></path>
                        <path d="M58.2014113,0.0952559923 L60.1541592,0.0952559923 C60.2494152,0.0952559923 60.2970432,0.142883989 60.2970432,0.222263982 L60.2970432,0.238139981 C60.2970432,0.333395973 60.2494152,0.365147971 60.1541592,0.365147971 L59.3286072,0.365147971 L59.3286072,3.41333973 C59.3286072,3.50859572 59.2809792,3.55622371 59.1857232,3.55622371 L59.1539712,3.55622371 C59.0587153,3.55622371 59.0110873,3.50859572 59.0110873,3.41333973 L59.0110873,0.365147971 L58.1855353,0.365147971 C58.0902793,0.365147971 58.0426513,0.317519974 58.0426513,0.238139981 L58.0426513,0.222263982 C58.0585273,0.142883989 58.1061553,0.0952559923 58.2014113,0.0952559923 Z" id="XMLID_116_"></path>
                        <path d="M65.3614867,2.4766558 L65.3614867,0.238139981 C65.3614867,0.142883989 65.4091147,0.0952559923 65.5043707,0.0952559923 L65.5361227,0.0952559923 C65.6313787,0.0952559923 65.6790067,0.142883989 65.6790067,0.238139981 L65.6790067,2.4290278 C65.6790067,3.03231576 65.9806507,3.31808373 66.5998146,3.31808373 C67.2031026,3.31808373 67.5206226,3.01643976 67.5206226,2.4290278 L67.5206226,0.238139981 C67.5206226,0.142883989 67.5682506,0.0952559923 67.6635066,0.0952559923 L67.6952586,0.0952559923 C67.7905145,0.0952559923 67.8381425,0.142883989 67.8381425,0.238139981 L67.8381425,2.4766558 C67.8381425,2.66716779 67.8063905,2.82592777 67.7428866,2.96881176 C67.6793826,3.11169575 67.6158786,3.22282774 67.5206226,3.30220773 C67.4253666,3.38158773 67.3301106,3.44509172 67.2189786,3.49271972 C67.1078466,3.54034772 66.9967146,3.57209971 66.9014586,3.58797571 C66.8062026,3.60385171 66.7109466,3.60385171 66.6156906,3.60385171 C66.5204347,3.60385171 66.4251787,3.60385171 66.3299227,3.58797571 C66.2346667,3.57209971 66.1235347,3.54034772 66.0124027,3.49271972 C65.8853947,3.44509172 65.7901387,3.38158773 65.7107587,3.30220773 C65.6313787,3.22282774 65.5519987,3.11169575 65.4884947,2.96881176 C65.3932387,2.84180377 65.3614867,2.66716779 65.3614867,2.4766558 Z" id="XMLID_118_"></path>
                        <path d="M73.9821541,3.57209971 L73.1724781,3.57209971 C73.0772221,3.57209971 73.0295941,3.52447172 73.0295941,3.42921572 L73.0295941,0.238139981 C73.0295941,0.142883989 73.0772221,0.0952559923 73.1724781,0.0952559923 L73.9821541,0.0952559923 C74.252046,0.0952559923 74.490186,0.142883989 74.680698,0.222263982 C74.87121,0.301643976 75.02997,0.428651966 75.141102,0.603287951 C75.2522339,0.762047939 75.3316139,0.952559923 75.3792419,1.14307191 C75.4268699,1.34945989 75.4586219,1.57172387 75.4586219,1.84161585 C75.4586219,2.09563183 75.4268699,2.33377181 75.3792419,2.5401598 C75.3316139,2.74654778 75.2522339,2.92118377 75.141102,3.07994375 C75.02997,3.23870374 74.887086,3.36571173 74.680698,3.46096772 C74.506062,3.52447172 74.267922,3.57209971 73.9821541,3.57209971 Z M73.3629901,0.381023969 L73.3629901,3.28633174 L74.013906,3.28633174 C74.760078,3.28633174 75.125226,2.81005177 75.125226,1.84161585 C75.125226,0.87317993 74.760078,0.396899968 74.013906,0.396899968 L73.3629901,0.396899968 L73.3629901,0.381023969 Z" id="XMLID_120_"></path>
                        <path d="M81.0469735,0.238139981 L81.0469735,3.42921572 C81.0469735,3.52447172 80.9993455,3.57209971 80.9040895,3.57209971 L80.8564615,3.57209971 C80.7612055,3.57209971 80.7135775,3.52447172 80.7135775,3.42921572 L80.7135775,0.238139981 C80.7135775,0.142883989 80.7612055,0.0952559923 80.8564615,0.0952559923 L80.9040895,0.0952559923 C80.9993455,0.0952559923 81.0469735,0.142883989 81.0469735,0.238139981 Z" id="XMLID_123_"></path>
                        <path d="M88.1911729,3.52447172 C88.0324129,3.58797571 87.8419009,3.61972771 87.619637,3.61972771 C87.397373,3.61972771 87.206861,3.58797571 87.048101,3.52447172 C86.889341,3.46096772 86.762333,3.36571173 86.667077,3.25457974 C86.571821,3.14344775 86.508317,3.01643976 86.444813,2.84180377 C86.3971851,2.68304378 86.3495571,2.5242838 86.3336811,2.36552381 C86.3178051,2.20676382 86.3019291,2.03212784 86.3019291,1.82573985 C86.3019291,1.61935187 86.3178051,1.44471588 86.3336811,1.2859559 C86.3495571,1.12719591 86.3813091,0.968435922 86.444813,0.809675935 C86.492441,0.650915948 86.571821,0.508031959 86.667077,0.396899968 C86.762333,0.285767977 86.889341,0.206387983 87.048101,0.12700799 C87.206861,0.0476279962 87.397373,0.0317519974 87.619637,0.0317519974 C87.8419009,0.0317519974 88.0324129,0.0635039949 88.1911729,0.12700799 C88.3499329,0.190511985 88.4769409,0.285767977 88.5721969,0.396899968 C88.6674529,0.508031959 88.7309569,0.635039949 88.7944609,0.809675935 C88.8420889,0.968435922 88.8897169,1.12719591 88.9055929,1.2859559 C88.9214688,1.44471588 88.9373448,1.61935187 88.9373448,1.82573985 C88.9373448,2.03212784 88.9214688,2.20676382 88.9055929,2.36552381 C88.8897169,2.5242838 88.8579649,2.68304378 88.7944609,2.84180377 C88.7309569,3.00056376 88.6674529,3.14344775 88.5721969,3.25457974 C88.4769409,3.36571173 88.3499329,3.44509172 88.1911729,3.52447172 Z M87.190985,3.25457974 C87.302117,3.30220773 87.445001,3.33395973 87.619637,3.33395973 C87.7783969,3.33395973 87.9212809,3.30220773 88.0482889,3.25457974 C88.1594209,3.20695174 88.2546769,3.12757175 88.3340569,3.04819175 C88.3975609,2.96881176 88.4610649,2.85767977 88.4928169,2.71479578 C88.5404449,2.58778779 88.5563209,2.4449038 88.5721969,2.31789581 C88.5880729,2.19088782 88.5880729,2.01625184 88.5880729,1.84161585 C88.5880729,1.66697987 88.5880729,1.49234388 88.5721969,1.36533589 C88.5563209,1.2383279 88.5404449,1.09544391 88.4928169,0.968435922 C88.4451889,0.841427932 88.3975609,0.730295941 88.3340569,0.635039949 C88.2705529,0.539783957 88.1752969,0.476279962 88.0482889,0.428651966 C87.9371569,0.381023969 87.7942729,0.349271972 87.619637,0.349271972 C87.460877,0.349271972 87.317993,0.381023969 87.190985,0.428651966 C87.079853,0.476279962 86.984597,0.555659955 86.905217,0.635039949 C86.825837,0.714419943 86.778209,0.825551934 86.746457,0.968435922 C86.698829,1.09544391 86.682953,1.2383279 86.667077,1.36533589 C86.651201,1.49234388 86.651201,1.66697987 86.651201,1.84161585 C86.651201,2.01625184 86.651201,2.19088782 86.667077,2.31789581 C86.682953,2.4449038 86.698829,2.58778779 86.746457,2.71479578 C86.794085,2.84180377 86.841713,2.95293576 86.905217,3.04819175 C86.984597,3.12757175 87.079853,3.19107574 87.190985,3.25457974 Z" id="XMLID_126_"></path>
                        <path d="M94.9861004,3.33395973 C95.6211403,3.33395973 95.9227843,3.07994375 95.9227843,2.57191179 C95.9227843,2.33377181 95.8751563,2.17501183 95.7640243,2.09563183 C95.6528923,2.01625184 95.4465043,1.95274784 95.1448603,1.90511985 C94.7162084,1.85749185 94.4304404,1.76223586 94.2558044,1.63522787 C94.0811684,1.50821988 94.0017884,1.3018319 94.0017884,1.01606392 C94.0017884,0.920807926 94.0176644,0.841427932 94.0335404,0.762047939 C94.0494164,0.682667945 94.0811684,0.587411953 94.1446724,0.508031959 C94.1923004,0.412775967 94.2558044,0.333395973 94.3510604,0.269891978 C94.4304404,0.206387983 94.5415724,0.158759987 94.6844564,0.111131991 C94.8273404,0.0635039949 94.9861004,0.0476279962 95.1766123,0.0476279962 C95.4782563,0.0476279962 95.7322723,0.0793799936 95.9545363,0.158759987 C96.0339163,0.190511985 96.0815443,0.238139981 96.0815443,0.317519974 L96.0815443,0.381023969 C96.0815443,0.412775967 96.0656683,0.444527964 96.0339163,0.460403963 C96.0021643,0.476279962 95.9704123,0.476279962 95.9069083,0.460403963 C95.7163963,0.381023969 95.4623803,0.349271972 95.1607363,0.349271972 C94.8432164,0.349271972 94.6209524,0.412775967 94.4939444,0.539783957 C94.3669364,0.666791946 94.3034324,0.825551934 94.3034324,1.03193992 C94.3034324,1.12719591 94.3193084,1.2065759 94.3351844,1.2859559 C94.3669364,1.34945989 94.3986884,1.41296389 94.4304404,1.44471588 C94.4621924,1.49234388 94.5256964,1.52409588 94.6050764,1.53997188 C94.6844564,1.57172387 94.7638364,1.58759987 94.8273404,1.60347587 C94.8908444,1.61935187 95.0019764,1.63522787 95.1289843,1.65110387 C95.5100083,1.69873186 95.7957763,1.79398786 95.9704123,1.92099585 C96.1450483,2.04800384 96.2403043,2.27026782 96.2403043,2.58778779 C96.2403043,2.71479578 96.2244283,2.84180377 96.1768003,2.95293576 C96.1291723,3.06406775 96.0815443,3.17519974 95.9862883,3.28633174 C95.8910323,3.39746373 95.7640243,3.47684372 95.5893883,3.54034772 C95.4147523,3.60385171 95.2083643,3.63560371 94.9543484,3.63560371 C94.6685804,3.63560371 94.3828124,3.58797571 94.0970444,3.49271972 C94.0176644,3.46096772 93.9700364,3.41333973 93.9700364,3.33395973 L93.9700364,3.28633174 C93.9700364,3.25457974 93.9859124,3.22282774 94.0017884,3.20695174 C94.0335404,3.19107574 94.0652924,3.19107574 94.1129204,3.20695174 C94.4304404,3.28633174 94.7003324,3.33395973 94.9861004,3.33395973 Z" id="XMLID_129_"></path>
                    </g>
                    <g id="XMLID_20_" transform="translate(38.578677, 9.208079)" fill="#000000">
                        <g id="XMLID_266_">
                            <path d="M9.57322723,2.4925318 C10.5734151,3.33395973 11.0814471,4.39765165 11.0814471,5.68360754 C11.0814471,6.44565548 10.8909351,7.12832343 10.4940352,7.69985938 C10.0971352,8.28727133 9.60497923,8.7000473 8.98581528,8.93818728 C9.82724321,9.14457526 10.5257872,9.54147523 11.0814471,10.1447632 C11.6371071,10.7480511 11.906999,11.4942231 11.906999,12.383279 C11.906999,13.8121189 11.5259751,14.9234388 10.7480511,15.7172387 C9.9701272,16.5110387 8.93818728,16.9873186 7.60460339,17.1302026 C6.82667945,17.2095826 5.46134356,17.2413346 3.50859572,17.2413346 L1.58759987,17.2254586 C1.12719591,17.2254586 0.762047939,17.0825746 0.49215596,16.7968066 C0.222263982,16.5110387 0.0635039949,16.0982627 0.0317519974,15.5584787 L0.0476279962,12.192767 L0.0635039949,8.28727133 C0.0635039949,7.68398338 0.0476279962,6.79492745 0.0317519974,5.62010355 C0.0158759987,4.44527964 9.02446045e-15,3.57209971 9.02446045e-15,2.96881176 C9.02446045e-15,2.5242838 0.111131991,2.15913583 0.349271972,1.87336785 C0.587411953,1.58759987 0.904931927,1.41296389 1.2859559,1.34945989 C2.01625184,1.2542039 3.50859572,1.2065759 5.73123554,1.2065759 C7.30295941,1.2383279 8.57303931,1.66697987 9.57322723,2.4925318 Z M7.35058741,4.52465964 C6.92193544,4.20713966 6.38215149,4.03250368 5.73123554,4.01662768 L5.0168156,4.01662768 L3.96899968,4.01662768 L3.28633174,4.01662768 L3.28633174,8.06500735 C4.04837967,8.06500735 4.87393161,8.04913135 5.74711154,8.01737936 C6.41390348,8.01737936 6.95368744,7.82686737 7.36646341,7.4458434 C7.77923937,7.06481943 7.96975136,6.54091147 7.96975136,5.85824353 C7.96975136,5.28670757 7.76336338,4.84217961 7.35058741,4.52465964 Z M3.27045574,10.6369191 L3.31808373,14.5106628 C3.55622371,14.5265388 4.46115564,14.5265388 6.01700352,14.5265388 C6.77905145,14.5106628 7.4140914,14.3360268 7.89037137,14.0026309 C8.38252733,13.6692349 8.62066731,13.1770789 8.62066731,12.526163 C8.62066731,11.2243311 7.73161138,10.5734151 5.93762352,10.5734151 L3.27045574,10.6369191 Z" id="XMLID_285_"></path>
                            <path d="M15.2092068,6.36627549 C15.8601227,6.36627549 16.2728987,6.66791946 16.3999067,7.28708341 L16.5427907,8.22376734 C16.8126826,7.63635539 17.2095826,7.16007542 17.7493666,6.79492745 C18.2891505,6.44565548 18.8448105,6.2710195 19.4322224,6.2710195 C20.3847824,6.2710195 20.8610623,6.76317546 20.8610623,7.74748738 C20.8610623,8.17613934 20.7499303,8.54128731 20.5276663,8.84293129 C20.3054024,9.14457526 19.9878824,9.30333525 19.5909824,9.30333525 L19.2417105,9.30333525 C18.4955385,9.30333525 17.8922506,9.58910323 17.4318466,10.1447632 C16.9714426,10.7004231 16.7491787,11.5418511 16.7491787,12.653171 C16.7491787,12.780179 16.7650547,13.3358389 16.7809307,14.3201508 C16.7968066,15.3044628 16.7968066,15.8918747 16.7650547,16.0665107 C16.7491787,16.9396906 16.2093947,17.3842186 15.1457028,17.3842186 C14.6217948,17.3842186 14.2407709,17.2730866 13.9708789,17.0349466 C13.7009869,16.7968066 13.5739789,16.3840307 13.5739789,15.7966187 C13.5739789,15.1933308 13.5898549,14.2248949 13.6057309,12.923063 C13.6216069,11.6212311 13.6374829,10.7004231 13.6374829,10.1606392 C13.6374829,9.9066232 13.6374829,9.52559923 13.6216069,9.00169128 C13.6057309,8.47778332 13.6057309,8.09675935 13.6057309,7.84274337 C13.6374829,6.84255545 14.1613909,6.36627549 15.2092068,6.36627549 Z" id="XMLID_283_"></path>
                            <path d="M22.0676382,3.34983573 C21.7183663,2.93705976 21.5913583,2.4290278 21.6707383,1.84161585 C21.7659942,1.34945989 22.0041342,0.984311921 22.4010342,0.714419943 C22.7979342,0.444527964 23.2107101,0.317519974 23.6393621,0.317519974 C24.2426501,0.317519974 24.71893,0.49215596 25.052326,0.841427932 C25.385722,1.1906999 25.5444819,1.63522787 25.5444819,2.17501183 C25.5444819,2.76242378 25.35397,3.22282774 24.95707,3.52447172 C24.56017,3.82611569 24.0680141,3.98487568 23.4488501,3.98487568 C22.8773142,3.96899968 22.4169102,3.7626117 22.0676382,3.34983573 Z M22.4327862,6.65204347 C22.7344302,6.42977948 23.0995781,6.31864749 23.4964781,6.31864749 C24.591922,6.31864749 25.147582,6.81080345 25.163458,7.79511537 C25.179334,8.38252733 25.179334,9.27158325 25.179334,10.4464072 C25.179334,11.6212311 25.163458,12.494411 25.163458,13.0659469 L25.179334,15.9077507 C25.179334,16.3840307 25.020574,16.7333027 24.71893,16.9873186 C24.417286,17.2413346 24.0203861,17.3683426 23.5282301,17.3683426 C23.0519501,17.3683426 22.6709262,17.2572106 22.3692822,17.0508226 C22.0676382,16.8444346 21.9247542,16.5269147 21.9247542,16.0982627 L21.9247542,7.71573538 C21.9723822,7.23945542 22.1311422,6.89018345 22.4327862,6.65204347 Z" id="XMLID_280_"></path>
                            <path d="M38.3087849,6.76317546 L38.3087849,11.8117431 C38.3087849,12.081635 38.3087849,12.399155 38.3246609,12.748427 C38.3246609,13.1135749 38.3405369,13.6057309 38.3405369,14.2566469 C38.3405369,14.8916868 38.3564129,15.4790988 38.3564129,16.0188827 C38.3564129,16.9079386 37.832505,17.3524666 36.800565,17.3524666 C36.0543931,17.3524666 35.5939891,17.0508226 35.4352292,16.4316587 L35.3240972,15.6378587 C34.5938012,16.8126826 33.5142333,17.4000946 32.1012694,17.4000946 C30.4977935,17.4000946 29.2435896,16.8761866 28.3069057,15.8442467 C27.3702218,14.8123068 26.9098178,13.5739789 26.9098178,12.129263 C26.9098178,10.4781592 27.4337258,9.09694727 28.4815417,7.98562736 C29.5293576,6.85843145 30.8629415,6.30277149 32.4822934,6.30277149 C33.6412413,6.30277149 34.5302972,6.71554746 35.1335852,7.52522339 L35.1177092,1.80986385 C35.1177092,0.698543944 35.6416171,0.142883989 36.689433,0.142883989 C37.245093,0.142883989 37.657869,0.25401598 37.9595129,0.49215596 C38.2611569,0.730295941 38.4040409,1.11131991 38.3881649,1.65110387 L38.3087849,6.76317546 Z M30.8470655,13.8914989 C31.3233455,14.3995308 31.9107574,14.6535468 32.5934254,14.6535468 C33.3395973,14.6535468 33.9746373,14.3995308 34.4667932,13.9073749 C34.9589492,13.4152189 35.2129652,12.732551 35.2129652,11.906999 C35.2129652,11.0338191 34.9748252,10.3352752 34.4985452,9.84311921 C34.0222653,9.33508725 33.4348533,9.09694727 32.7204334,9.09694727 C31.9742614,9.09694727 31.3392215,9.36683925 30.8470655,9.8907472 C30.3549096,10.4146552 30.1008936,11.1290751 30.1008936,12.034007 C30.1326456,12.764303 30.3707856,13.3834669 30.8470655,13.8914989 Z" id="XMLID_277_"></path>
                            <path d="M47.1993442,19.0194465 C47.7550042,18.5431665 48.0248961,17.9398786 48.0248961,17.2254586 L48.0248961,16.0665107 C47.7550042,16.4792867 47.3739802,16.7968066 46.8500722,17.0508226 C46.3261643,17.3048386 45.7863803,17.4318466 45.1989684,17.4318466 C43.6431205,17.4318466 42.3889166,16.9079386 41.4046047,15.8442467 C40.4202927,14.7805548 39.9281368,13.5263509 39.9281368,12.049883 C39.9281368,10.3987792 40.4361687,9.03344327 41.4681087,7.92212336 C42.5000486,6.81080345 43.7860045,6.2710195 45.3259764,6.2710195 C46.5325523,6.2710195 47.4851122,6.76317546 48.1677801,7.73161138 L48.2154081,7.28708341 C48.2630361,7.01719144 48.4217961,6.79492745 48.6916881,6.63616747 C48.9615801,6.46153148 49.294976,6.38215149 49.691876,6.38215149 C50.15228,6.38215149 50.5174279,6.50915948 50.8031959,6.76317546 C51.0889639,7.01719144 51.2318479,7.36646341 51.2318479,7.77923937 C51.2000959,11.1925791 51.1842199,13.5581029 51.1842199,14.8758108 L51.2000959,17.2889626 C51.2318479,18.8289345 50.6920639,20.1307664 49.564868,21.1944583 C48.4376721,22.2581502 47.0405842,22.7979342 45.3418524,22.7979342 C43.9130125,22.7979342 42.8016926,22.5756702 41.9761406,22.1470182 C41.3252247,21.7977462 40.9918287,21.3214663 40.9918287,20.6864263 C40.9918287,20.2577744 41.1347127,19.8926264 41.4046047,19.5751064 C41.6744966,19.2575865 42.0078926,19.0988265 42.3730406,19.0988265 C42.5159246,19.0988265 42.8810726,19.1940825 43.4526085,19.4004704 C44.0876485,19.6386104 44.6909364,19.7497424 45.2624724,19.7497424 C46.0086443,19.7338664 46.6436842,19.4957264 47.1993442,19.0194465 Z M43.8812605,13.8597469 C44.3575404,14.3519028 44.9290764,14.5900428 45.6276203,14.5900428 C46.3261643,14.5900428 46.8977002,14.3519028 47.3898562,13.8914989 C47.8820121,13.4152189 48.1201521,12.732551 48.1201521,11.843495 C48.1201521,10.9544391 47.8820121,10.2717712 47.4216082,9.77961521 C46.9453282,9.30333525 46.3896683,9.06519527 45.7228763,9.06519527 C44.9925804,9.04931927 44.3734164,9.30333525 43.8971365,9.84311921 C43.4208565,10.3829032 43.1827165,11.0814471 43.1827165,11.954627 C43.1827165,12.732551 43.4049805,13.3675909 43.8812605,13.8597469 Z" id="XMLID_274_"></path>
                            <path d="M56.8837034,14.0978869 C57.3441074,14.4789108 57.8680153,14.6694228 58.4713033,14.6694228 C59.1857232,14.6694228 59.8525152,14.4947868 60.4399271,14.1296389 C60.8527031,13.9073749 61.2019751,13.7962429 61.5036191,13.7962429 C61.868767,13.7962429 62.170411,13.9550029 62.424427,14.2566469 C62.678443,14.5582908 62.8054509,14.9234388 62.8054509,15.3203388 C62.8054509,15.8442467 62.535559,16.2570227 62.011651,16.5586667 C61.0908431,17.1460786 59.8207632,17.4318466 58.2331633,17.4318466 C56.7408194,17.4318466 55.4707395,16.9238146 54.4229236,15.8918747 C53.3751077,14.8599348 52.8353238,13.6216069 52.8194478,12.161015 C52.8194478,10.4781592 53.3592317,9.08107127 54.4229236,7.95387536 C55.4866155,6.82667945 56.7884474,6.2551435 58.3442953,6.2551435 C59.7413832,6.2551435 60.9003311,6.69967146 61.837015,7.58872739 C62.773699,8.47778332 63.2341029,9.49384724 63.2341029,10.6369191 C63.2341029,11.3354631 63.1070949,11.843495 62.8689549,12.145139 C62.630815,12.446783 62.122783,12.605543 61.3766111,12.621419 C60.3922991,12.653171 58.6300633,12.669047 56.0899035,12.684923 C56.1534075,13.2405829 56.4232995,13.7168629 56.8837034,14.0978869 Z M56.8201994,9.38271525 C56.3915475,9.76373921 56.1534075,10.2241432 56.1057795,10.7321751 C57.4076114,10.7321751 58.6776913,10.7004231 59.9318952,10.6369191 C60.1224072,10.6369191 60.2176632,10.5892911 60.2176632,10.4940352 C60.2176632,9.9860032 60.0430272,9.58910323 59.6778792,9.27158325 C59.3127312,8.95406328 58.8840793,8.79530329 58.3601713,8.79530329 C57.7568834,8.81117929 57.2488514,9.00169128 56.8201994,9.38271525 Z" id="XMLID_271_"></path>
                            <path d="M70.2830463,2.79417578 C70.2830463,2.30201981 70.4259303,1.93687184 70.6958223,1.68285586 C70.9657143,1.42883989 71.3626143,1.3018319 71.8547702,1.3018319 C72.4739342,1.3018319 72.9184621,1.42883989 73.1724781,1.69873186 C73.4264941,1.96862384 73.5535021,2.39727581 73.5535021,2.98468776 C73.5376261,3.7149837 73.5376261,6.2392675 73.5376261,10.5257872 C73.5376261,11.7958671 73.8233941,12.748427 74.410806,13.3993429 C74.998218,14.0343829 75.8078939,14.3677788 76.8715858,14.3677788 C77.8558977,14.3677788 78.6338217,14.0026309 79.1736056,13.2882109 C79.7292656,12.573791 80.0150336,11.6371071 80.0467856,10.5099112 C80.0785376,9.76373921 80.0944136,8.93818728 80.0944136,8.06500735 C80.0944136,7.19182742 80.0944136,6.2233915 80.0785376,5.19145158 C80.0626616,4.14363567 80.0626616,3.36571173 80.0626616,2.82592777 C80.0626616,1.79398786 80.6183215,1.2700799 81.7296414,1.2700799 C82.3011774,1.2700799 82.7139533,1.41296389 82.9679693,1.71460786 C83.2378613,2.01625184 83.3648693,2.4766558 83.3648693,3.12757175 L83.3807453,10.0653832 C83.3807453,12.272147 82.7933333,14.0502589 81.6343854,15.3838428 C80.4595615,16.7174267 78.8402097,17.4000946 76.7604538,17.4000946 C74.775954,17.4000946 73.1883541,16.8126826 72.0135302,15.6219827 C70.8387063,14.4312828 70.2512944,12.764303 70.2512944,10.6210431 C70.2671703,6.95368744 70.2830463,4.36589965 70.2830463,2.79417578 Z" id="XMLID_269_"></path>
                            <path d="M91.1599847,12.192767 L87.9530329,16.6062947 C87.587885,17.0984506 87.143357,17.3365906 86.587697,17.3365906 C86.1590451,17.3365906 85.7621451,17.1937066 85.3969971,16.8920626 C85.0159732,16.5904187 84.8254612,16.2411467 84.8254612,15.8283707 C84.8254612,15.4632228 84.9524692,15.1139508 85.2064851,14.7646788 L89.7152688,9.03344327 C89.6041368,8.87468329 88.2070489,7.12832343 85.5081291,3.79436369 C85.2223611,3.44509172 85.0794772,3.11169575 85.0794772,2.76242378 C85.0794772,2.38139981 85.2699891,2.03212784 85.6351371,1.69873186 C86.0002851,1.36533589 86.4130611,1.1906999 86.841713,1.1906999 C87.365621,1.1906999 87.8101489,1.42883989 88.1752969,1.92099585 L91.7632726,6.71554746 L95.3512483,1.87336785 C95.7163963,1.39708789 96.1768003,1.17482391 96.7324602,1.17482391 C97.1769882,1.17482391 97.5580122,1.33358389 97.9072841,1.66697987 C98.2565561,2.00037584 98.4311921,2.34964781 98.4311921,2.73067178 C98.4311921,3.06406775 98.3359361,3.34983573 98.1295481,3.60385171 C97.7326481,4.12775967 97.3039962,4.68341962 96.8435922,5.27083158 C96.3673123,5.85824353 95.8275283,6.54091147 95.2083643,7.30295941 C94.5892004,8.06500735 94.1129204,8.6524193 93.7795245,9.04931927 L98.0501681,14.3836548 C98.5105721,14.9710668 98.7328361,15.4314708 98.7328361,15.7648667 C98.7328361,16.1458907 98.5423241,16.4951627 98.1454241,16.8285586 C97.7485241,17.1619546 97.3357482,17.3365906 96.8753442,17.3365906 C96.3196843,17.3365906 95.8275283,17.0349466 95.3988763,16.4157827 L92.4141886,12.256271 L91.7315206,11.3672151 L91.1599847,12.192767 Z" id="XMLID_267_"></path>
                        </g>
                    </g>
                    <g id="XMLID_124_" fill="#383838">
                        <path d="M15.6378587,37.610241 L9.9860032,37.610241 L9.9383752,33.5142333 C9.66848322,32.4664174 9.01756727,30.8788175 8.47778332,30.6724295 C7.33471141,30.2279016 5.95349952,28.3704097 5.50897156,26.7351818 C4.71517162,26.4970419 2.4925318,25.6556139 1.49234388,23.7346181 C0.87317993,22.5439182 0.841427932,21.1627063 1.38121189,19.6227344 C0.920807926,19.1782065 0.0476279962,18.1145145 0.0476279962,16.6856747 C0.0476279962,15.3520908 0.777923937,14.0343829 2.23851582,12.811931 C1.90511985,11.986379 1.2224519,9.9383752 2.06387983,8.31902333 C2.57191179,7.35058741 3.50859572,6.69967146 4.85805561,6.41390348 C4.88980761,5.50897156 5.14382359,3.38158773 6.58853947,1.82573985 C7.60460339,0.74617194 8.98581528,0.158759987 10.7162991,0.111131991 C11.0338191,0.0793799936 14.3201508,-0.142883989 15.5902307,2.4449038 L15.6378587,2.5401598 L15.6378587,37.610241 L15.6378587,37.610241 Z M10.9385631,36.6418051 L14.6535468,36.6418051 L14.6535468,2.74654778 C13.6057309,0.809675935 10.8115551,1.04781592 10.7798031,1.04781592 L10.7480511,1.04781592 C9.28745925,1.09544391 8.11263535,1.55584787 7.28708341,2.4449038 C5.73123554,4.11188367 5.81061553,6.73142346 5.81061553,6.76317546 L5.82649153,7.19182742 L5.39783957,7.25533142 C4.14363567,7.4458434 3.31808373,7.93799936 2.90530777,8.7159233 C2.07975583,10.3193992 3.23870374,12.669047 3.23870374,12.700799 L3.41333973,13.050071 L3.11169575,13.2882109 C1.69873186,14.3995308 0.984311921,15.5267268 0.984311921,16.6380467 C0.984311921,18.0827625 2.20676382,19.0670745 2.22263982,19.0670745 L2.5084078,19.2893384 L2.38139981,19.6227344 C1.82573985,21.0039463 1.80986385,22.2263982 2.33377181,23.2424621 C3.33395973,25.179334 5.98525152,25.8302499 6.00112752,25.8302499 L6.30277149,25.8937539 L6.36627549,26.1953979 C6.68379546,27.6877418 8.00150336,29.4023496 8.81117929,29.7198696 C10.0336312,30.1961496 10.7480511,32.7680614 10.8909351,33.2760933 L10.9068111,33.3395973 L10.9385631,36.6418051 Z" id="XMLID_134_"></path>
                        <path d="M8.92231128,9.08107127 C8.12851135,9.08107127 6.63616747,8.81117929 4.9850636,7.11244743 C4.79455161,6.92193544 4.81042761,6.62029147 5.0009396,6.42977948 C5.19145158,6.2392675 5.49309556,6.2551435 5.68360754,6.44565548 C7.65223138,8.47778332 9.23983126,8.09675935 9.25570726,8.09675935 C9.50972324,8.03325535 9.77961521,8.19201534 9.84311921,8.44603132 C9.9066232,8.7000473 9.74786322,8.96993928 9.49384724,9.03344327 C9.47797124,9.03344327 9.25570726,9.08107127 8.92231128,9.08107127 Z" id="XMLID_55_"></path>
                        <path d="M11.954627,15.9871307 C11.7799911,15.9871307 11.6053551,15.8918747 11.5259751,15.7331147 C11.3989671,15.4949748 11.4942231,15.2092068 11.7323631,15.0821988 C13.7168629,14.0502589 14.6852988,11.7482391 14.7011748,11.7323631 C14.7964308,11.4783471 15.0821988,11.3672151 15.3362148,11.4624711 C15.5902307,11.5577271 15.7013627,11.843495 15.6061067,12.097511 C15.5584787,12.208643 14.4947868,14.7329268 12.192767,15.9395027 C12.113387,15.9712547 12.034007,15.9871307 11.954627,15.9871307 Z" id="XMLID_54_"></path>
                        <path d="M6.2233915,15.9871307 C5.98525152,15.9871307 5.77886354,15.8124947 5.74711154,15.5584787 C5.68360754,15.1139508 5.57247555,14.7329268 5.38196357,14.4312828 C4.61991563,13.1294509 2.96881176,13.3834669 2.90530777,13.3834669 C2.63541579,13.4310949 2.39727581,13.2405829 2.34964781,12.986567 C2.30201981,12.716675 2.4925318,12.478535 2.74654778,12.430907 C2.84180377,12.415031 5.12794759,12.065759 6.2233915,13.9391269 C6.46153148,14.3519028 6.63616747,14.8599348 6.69967146,15.4314708 C6.73142346,15.7013627 6.54091147,15.9395027 6.28689549,15.9712547 C6.2710195,15.9871307 6.2392675,15.9871307 6.2233915,15.9871307 Z" id="XMLID_53_"></path>
                        <path d="M5.82649153,14.7011748 C5.74711154,14.7011748 5.66773154,14.6852988 5.60422755,14.6535468 C5.36608757,14.5265388 5.27083158,14.2407709 5.39783957,14.0026309 C6.39802749,12.097511 7.89037137,11.891123 7.95387536,11.891123 C8.22376734,11.859371 8.46190732,12.049883 8.49365932,12.319775 C8.52541131,12.589667 8.33489933,12.827807 8.08088335,12.859559 C8.03325535,12.875435 7.00131544,13.050071 6.2710195,14.4630348 C6.1598875,14.6059188 6.00112752,14.7011748 5.82649153,14.7011748 Z" id="XMLID_52_"></path>
                        <path d="M2.01625184,24.1791461 C1.74635986,24.1791461 1.53997188,23.9727581 1.52409588,23.7028661 C1.52409588,23.4329741 1.73048386,23.2107101 2.00037584,23.2107101 C2.11150783,23.2107101 4.58816363,23.1154541 5.60422755,20.8610623 C5.90587153,20.1783944 6.06463151,19.3687184 6.04875551,18.4320345 C6.04875551,18.1621425 6.2551435,17.9398786 6.52503548,17.9398786 C6.52503548,17.9398786 6.52503548,17.9398786 6.52503548,17.9398786 C6.79492745,17.9398786 7.00131544,18.1462665 7.01719144,18.4161585 C7.03306743,19.4957264 6.85843145,20.4482864 6.49328348,21.2579623 C5.22320358,24.0680141 2.15913583,24.1791461 2.01625184,24.1791461 C2.03212784,24.1791461 2.03212784,24.1791461 2.01625184,24.1791461 Z" id="XMLID_51_"></path>
                        <path d="M6.2233915,21.2579623 C6.11225951,21.2579623 6.00112752,21.2103343 5.90587153,21.1309543 C5.69948354,20.9563183 5.68360754,20.6387983 5.85824353,20.4482864 C6.79492745,19.4004704 7.77923937,18.8606865 8.82705529,18.8448105 C8.84293129,18.8448105 8.87468329,18.8448105 8.89055929,18.8448105 C10.2400192,18.8448105 11.1290751,19.7338664 11.1608271,19.7814944 C11.3513391,19.9720064 11.3513391,20.2736504 11.1449511,20.4641624 C10.9544391,20.6546743 10.6527951,20.6546743 10.4622832,20.4641624 C10.4464072,20.4482864 9.77961521,19.7973704 8.81117929,19.8291224 C8.04913135,19.8449984 7.30295941,20.2895264 6.55678747,21.1150783 C6.49328348,21.2103343 6.35039949,21.2579623 6.2233915,21.2579623 Z" id="XMLID_50_"></path>
                        <path d="M5.90587153,26.8145618 C5.66773154,26.8145618 5.46134356,26.6399259 5.42959156,26.4017859 C5.39783957,26.1318939 5.57247555,25.8937539 5.84236753,25.8461259 C5.87411953,25.8461259 7.89037137,25.5127299 8.7476753,24.417286 C8.92231128,24.1950221 9.03344327,23.9727581 9.08107127,23.7187421 C9.12869927,23.4488501 9.38271525,23.2900901 9.65260722,23.3377181 C9.9224992,23.3853461 10.0812592,23.6393621 10.0336312,23.9092541 C9.9542512,24.306154 9.77961521,24.671302 9.52559923,25.004698 C8.43015532,26.4176619 6.09638351,26.7828098 6.00112752,26.7986858 C5.95349952,26.8145618 5.92174752,26.8145618 5.90587153,26.8145618 Z" id="XMLID_49_"></path>
                        <path d="M12.208643,25.5286059 C12.129263,25.5286059 12.049883,25.5127299 11.970503,25.465102 C11.954627,25.449226 10.5257872,24.687178 9.30333525,25.163458 C9.04931927,25.258714 8.77942729,25.131706 8.6682953,24.893566 C8.57303931,24.63955 8.7000473,24.369658 8.93818728,24.258526 C10.5892911,23.6234861 12.351527,24.56017 12.415031,24.607798 C12.653171,24.734806 12.732551,25.03645 12.605543,25.258714 C12.542039,25.43335 12.367403,25.5286059 12.208643,25.5286059 Z" id="XMLID_48_"></path>
                        <path d="M8.90643528,30.8470655 C8.89055929,30.8470655 8.87468329,30.8470655 8.85880729,30.8470655 C8.58891531,30.8153135 8.39840332,30.5771735 8.43015532,30.3072816 C8.63654331,28.4497897 10.3670272,27.4813538 10.4464072,27.4337258 C10.6845471,27.3067178 10.9703151,27.3860978 11.0973231,27.6242378 C11.2243311,27.8623778 11.1449511,28.1481457 10.9068111,28.2751537 C10.8909351,28.2910297 9.54147523,29.0530777 9.39859124,30.3866616 C9.35096325,30.6565535 9.14457526,30.8470655 8.90643528,30.8470655 Z" id="XMLID_47_"></path>
                    </g>
                    <g id="XMLID_115_" transform="translate(17.304839, 1.587600)" fill="#7F7F7F">
                        <path d="M5.31845957,35.9750131 L0.0635039949,35.9750131 L0.0635039949,19.0194465 L3.6991077,19.0194465 L3.6991077,15.2250828 L0.0635039949,13.7644909 L0.0635039949,0.508031959 C0.0635039949,0.238139981 0.285767977,0.0158759987 0.555659955,0.0158759987 C0.825551934,0.0158759987 1.04781592,0.238139981 1.04781592,0.508031959 L1.04781592,13.1135749 L4.68341962,14.5741668 L4.68341962,19.9878824 L1.04781592,19.9878824 L1.04781592,35.0224532 L4.36589965,35.0224532 L4.36589965,27.9258818 L8.08088335,24.861814 L8.08088335,22.2581502 C8.08088335,21.9882582 8.30314733,21.7659942 8.57303931,21.7659942 C8.84293129,21.7659942 9.06519527,21.9882582 9.06519527,22.2581502 L9.06519527,25.306342 L5.35021157,28.3704097 L5.35021157,35.9750131 L5.31845957,35.9750131 Z" id="XMLID_46_"></path>
                        <path d="M7.82686737,19.9878824 L4.19126366,19.9878824 C3.92137168,19.9878824 3.6991077,19.7656184 3.6991077,19.4957264 C3.6991077,19.2258345 3.92137168,19.0035705 4.19126366,19.0035705 L6.85843145,19.0035705 L6.77905145,10.2717712 L13.4945989,10.2717712 L12.859559,7.84274337 L4.50878364,7.84274337 L4.50878364,1.77811186 C4.50878364,1.50821988 4.73104762,1.2859559 5.0009396,1.2859559 C5.27083158,1.2859559 5.49309556,1.50821988 5.49309556,1.77811186 L5.49309556,6.87430745 L13.6216069,6.87430745 L14.7646788,11.2402071 L7.76336338,11.2402071 L7.82686737,19.9878824 Z" id="XMLID_45_"></path>
                        <path d="M10.7956791,17.3207146 L7.31883541,17.3207146 C7.04894343,17.3207146 6.82667945,17.0984506 6.82667945,16.8285586 C6.82667945,16.5586667 7.04894343,16.3364027 7.31883541,16.3364027 L10.3511512,16.3364027 L12.796055,13.5898549 C12.970691,13.3834669 13.2723349,13.3675909 13.4787229,13.5422269 C13.6851109,13.7168629 13.7009869,14.0343829 13.5263509,14.2248949 L10.7956791,17.3207146 Z" id="XMLID_44_"></path>
                        <path d="M7.33471141,28.7673097 L5.74711154,27.4654778 C5.54072355,27.2908418 5.50897156,26.9891978 5.68360754,26.7828098 C5.85824353,26.5764219 6.1598875,26.5446699 6.36627549,26.7193059 L7.35058741,27.5289818 L11.1449511,24.528418 L11.1449511,19.3052144 L12.827807,17.6223586 C13.018319,17.4318466 13.3199629,17.4318466 13.5104749,17.6223586 C13.7009869,17.8128706 13.7009869,18.1145145 13.5104749,18.3050265 L12.113387,19.7021144 L12.113387,24.988822 L7.33471141,28.7673097 Z" id="XMLID_43_"></path>
                        <path d="M7.31883541,7.85861937 C7.20770342,7.85861937 7.09657143,7.82686737 7.01719144,7.74748738 C6.81080345,7.57285139 6.77905145,7.27120742 6.95368744,7.06481943 L8.7635513,4.88980761 C8.93818728,4.68341962 9.23983126,4.65166763 9.44621924,4.82630361 C9.65260722,5.0009396 9.68435922,5.30258357 9.50972324,5.50897156 L7.69985938,7.68398338 C7.58872739,7.79511537 7.4617194,7.85861937 7.31883541,7.85861937 Z" id="XMLID_42_"></path>
                        <path d="M7.31883541,13.7962429 C7.19182742,13.7962429 7.08069543,13.7486149 6.98543944,13.6533589 L3.85786769,10.6369191 C3.66735571,10.4464072 3.66735571,10.1447632 3.84199169,9.9542512 C4.03250368,9.76373921 4.33414765,9.76373921 4.52465964,9.9383752 L7.65223138,12.970691 C7.84274337,13.1612029 7.84274337,13.4628469 7.66810738,13.6533589 C7.57285139,13.7486149 7.4458434,13.7962429 7.31883541,13.7962429 Z" id="XMLID_41_"></path>
                        <path d="M4.84217961,29.2594656 C4.66754362,29.2594656 4.49290764,29.1642097 4.41352765,28.9895737 L2.38139981,24.972946 C2.25439182,24.734806 2.36552381,24.449038 2.60366379,24.32203 C2.84180377,24.1950221 3.12757175,24.306154 3.25457974,24.544294 L5.27083158,28.5767977 C5.39783957,28.8149377 5.28670757,29.1007057 5.04856759,29.2277136 C4.9850636,29.2435896 4.90568361,29.2594656 4.84217961,29.2594656 Z" id="XMLID_40_"></path>
                        <path d="M0.555659955,35.9750131 C0.476279962,35.9750131 0.381023969,35.9591371 0.301643976,35.9115091 C0.0793799936,35.7686251 2.77555756e-17,35.4828571 0.142883989,35.2447172 L2.07975583,32.0218894 C2.22263982,31.7996254 2.5084078,31.7202454 2.74654778,31.8631294 C2.96881176,32.0060134 3.04819175,32.2917814 2.90530777,32.5299214 L0.968435922,35.7527491 C0.87317993,35.8956331 0.714419943,35.9750131 0.555659955,35.9750131 Z" id="XMLID_39_"></path>
                    </g>
                    <g id="XMLID_110_" transform="translate(16.511039, 0.000000)" fill="#00FF00">
                        <circle id="XMLID_38_" cx="1.34945989" cy="1.36533589" r="1"></circle>
                        <path d="M1.34945989,2.66716779 C0.635039949,2.66716779 0.0635039949,2.07975583 0.0635039949,1.38121189 C0.0635039949,0.666791946 0.650915948,0.0952559923 1.34945989,0.0952559923 C2.06387983,0.0952559923 2.63541579,0.682667945 2.63541579,1.38121189 C2.63541579,2.07975583 2.06387983,2.66716779 1.34945989,2.66716779 Z M1.34945989,1.04781592 C1.17482391,1.04781592 1.03193992,1.1906999 1.03193992,1.36533589 C1.03193992,1.53997188 1.17482391,1.68285586 1.34945989,1.68285586 C1.52409588,1.68285586 1.66697987,1.53997188 1.66697987,1.36533589 C1.66697987,1.1906999 1.52409588,1.04781592 1.34945989,1.04781592 Z" id="XMLID_111_"></path>
                    </g>
                    <g id="XMLID_105_" transform="translate(20.956318, 1.111320)" fill="#FF6503">
                        <circle id="XMLID_35_" cx="1.34945989" cy="1.3018319" r="1"></circle>
                        <path d="M1.34945989,2.60366379 C0.635039949,2.60366379 0.0635039949,2.01625184 0.0635039949,1.31770789 C0.0635039949,0.603287951 0.650915948,0.0317519974 1.34945989,0.0317519974 C2.06387983,0.0317519974 2.63541579,0.61916395 2.63541579,1.31770789 C2.63541579,2.01625184 2.06387983,2.60366379 1.34945989,2.60366379 Z M1.34945989,0.984311921 C1.17482391,0.984311921 1.03193992,1.12719591 1.03193992,1.3018319 C1.03193992,1.47646788 1.17482391,1.61935187 1.34945989,1.61935187 C1.52409588,1.61935187 1.66697987,1.47646788 1.66697987,1.3018319 C1.66697987,1.12719591 1.52409588,0.984311921 1.34945989,0.984311921 Z" id="XMLID_106_"></path>
                    </g>
                    <g id="XMLID_100_" transform="translate(25.877878, 4.921560)" fill="#D300FF">
                        <circle id="XMLID_32_" cx="1.2383279" cy="1.17482391" r="1"></circle>
                        <path d="M1.2383279,2.34964781 C0.587411953,2.34964781 0.0635039949,1.82573985 0.0635039949,1.17482391 C0.0635039949,0.523907958 0.587411953,0 1.2383279,0 C1.88924385,0 2.41315181,0.523907958 2.41315181,1.17482391 C2.41315181,1.82573985 1.87336785,2.34964781 1.2383279,2.34964781 Z M1.2383279,0.968435922 C1.12719591,0.968435922 1.03193992,1.06369191 1.03193992,1.17482391 C1.03193992,1.2859559 1.12719591,1.38121189 1.2383279,1.38121189 C1.34945989,1.38121189 1.44471588,1.2859559 1.44471588,1.17482391 C1.42883989,1.06369191 1.34945989,0.968435922 1.2383279,0.968435922 Z" id="XMLID_101_"></path>
                    </g>
                    <g id="XMLID_95_" transform="translate(19.527478, 9.843119)" fill="#020266">
                        <circle id="XMLID_29_" cx="1.39708789" cy="1.38121189" r="1"></circle>
                        <path d="M1.39708789,2.68304378 C0.682667945,2.68304378 0.111131991,2.09563183 0.111131991,1.39708789 C0.111131991,0.682667945 0.698543944,0.111131991 1.39708789,0.111131991 C2.09563183,0.111131991 2.68304378,0.698543944 2.68304378,1.39708789 C2.69891978,2.09563183 2.11150783,2.68304378 1.39708789,2.68304378 Z M1.39708789,1.06369191 C1.2224519,1.06369191 1.07956791,1.2065759 1.07956791,1.38121189 C1.07956791,1.55584787 1.2224519,1.69873186 1.39708789,1.69873186 C1.57172387,1.69873186 1.71460786,1.55584787 1.71460786,1.38121189 C1.73048386,1.2065759 1.57172387,1.06369191 1.39708789,1.06369191 Z" id="XMLID_96_"></path>
                    </g>
                    <g id="XMLID_90_" transform="translate(29.688118, 13.653359)" fill="#FF0000">
                        <circle id="XMLID_26_" cx="1.33358389" cy="1.2859559" r="1"></circle>
                        <path d="M1.33358389,2.58778779 C0.61916395,2.58778779 0.0476279962,2.00037584 0.0476279962,1.3018319 C0.0476279962,0.587411953 0.635039949,0.0158759987 1.33358389,0.0158759987 C2.03212784,0.0158759987 2.61953979,0.603287951 2.61953979,1.3018319 C2.63541579,2.00037584 2.04800384,2.58778779 1.33358389,2.58778779 Z M1.33358389,0.968435922 C1.15894791,0.968435922 1.01606392,1.11131991 1.01606392,1.2859559 C1.01606392,1.46059188 1.15894791,1.60347587 1.33358389,1.60347587 C1.50821988,1.60347587 1.65110387,1.46059188 1.65110387,1.2859559 C1.65110387,1.11131991 1.52409588,0.968435922 1.33358389,0.968435922 Z" id="XMLID_91_"></path>
                    </g>
                    <g id="XMLID_85_" transform="translate(29.688118, 17.622359)" fill="#00FFD4">
                        <circle id="XMLID_21_" cx="1.41296389" cy="1.2859559" r="1"></circle>
                        <path d="M1.41296389,2.57191179 C0.698543944,2.57191179 0.12700799,1.98449984 0.12700799,1.2859559 C0.12700799,0.571535954 0.714419943,-4.51223023e-15 1.41296389,-4.51223023e-15 C2.12738383,-4.51223023e-15 2.69891978,0.587411953 2.69891978,1.2859559 C2.71479578,2.00037584 2.12738383,2.57191179 1.41296389,2.57191179 Z M1.41296389,0.952559923 C1.2383279,0.952559923 1.09544391,1.09544391 1.09544391,1.2700799 C1.09544391,1.44471588 1.2383279,1.58759987 1.41296389,1.58759987 C1.58759987,1.58759987 1.73048386,1.44471588 1.73048386,1.2700799 C1.74635986,1.09544391 1.60347587,0.952559923 1.41296389,0.952559923 Z" id="XMLID_86_"></path>
                    </g>
                    <g id="XMLID_78_" transform="translate(24.449038, 21.273838)" fill="#FF3277">
                        <circle id="XMLID_17_" cx="1.41296389" cy="1.34945989" r="1"></circle>
                        <path d="M1.41296389,2.63541579 C0.698543944,2.63541579 0.12700799,2.04800384 0.12700799,1.34945989 C0.12700799,0.650915948 0.714419943,0.0635039949 1.41296389,0.0635039949 C2.11150783,0.0635039949 2.69891978,0.650915948 2.69891978,1.34945989 C2.69891978,2.04800384 2.12738383,2.63541579 1.41296389,2.63541579 Z M1.41296389,1.01606392 C1.2383279,1.01606392 1.09544391,1.15894791 1.09544391,1.33358389 C1.09544391,1.50821988 1.2383279,1.65110387 1.41296389,1.65110387 C1.58759987,1.65110387 1.73048386,1.50821988 1.73048386,1.33358389 C1.73048386,1.15894791 1.58759987,1.01606392 1.41296389,1.01606392 Z" id="XMLID_81_"></path>
                    </g>
                    <g id="XMLID_72_" transform="translate(18.416159, 24.290278)" fill="#FFFC00">
                        <circle id="XMLID_14_" cx="1.38121189" cy="1.31770789" r="1"></circle>
                        <path d="M1.38121189,2.60366379 C0.666791946,2.60366379 0.0952559923,2.01625184 0.0952559923,1.31770789 C0.0952559923,0.603287951 0.682667945,0.0317519974 1.38121189,0.0317519974 C2.09563183,0.0317519974 2.66716779,0.61916395 2.66716779,1.31770789 C2.66716779,2.03212784 2.09563183,2.60366379 1.38121189,2.60366379 Z M1.38121189,1.00018792 C1.2065759,1.00018792 1.06369191,1.14307191 1.06369191,1.31770789 C1.06369191,1.49234388 1.2065759,1.63522787 1.38121189,1.63522787 C1.55584787,1.63522787 1.69873186,1.49234388 1.69873186,1.31770789 C1.69873186,1.14307191 1.55584787,1.00018792 1.38121189,1.00018792 Z" id="XMLID_73_"></path>
                    </g>
                    <g id="XMLID_67_" transform="translate(18.733678, 31.751997)" fill="#005F27">
                        <circle id="XMLID_11_" cx="1.38121189" cy="1.36533589" r="1"></circle>
                        <path d="M1.38121189,2.66716779 C0.666791946,2.66716779 0.0952559923,2.07975583 0.0952559923,1.38121189 C0.0952559923,0.682667945 0.682667945,0.0952559923 1.38121189,0.0952559923 C2.09563183,0.0952559923 2.66716779,0.682667945 2.66716779,1.38121189 C2.66716779,2.07975583 2.09563183,2.66716779 1.38121189,2.66716779 Z M1.38121189,1.04781592 C1.2065759,1.04781592 1.06369191,1.1906999 1.06369191,1.36533589 C1.06369191,1.53997188 1.2065759,1.68285586 1.38121189,1.68285586 C1.55584787,1.68285586 1.69873186,1.53997188 1.69873186,1.36533589 C1.69873186,1.1906999 1.57172387,1.04781592 1.38121189,1.04781592 Z" id="XMLID_68_"></path>
                    </g>
                    <g id="XMLID_64_" transform="translate(10.001879, 39.372477)" fill="#AFAFAF">
                        <line x1="0.476279962" y1="0.523907958" x2="12.335651" y2="0.523907958" id="XMLID_8_"></line>
                        <path d="M12.335651,0.904931927 L0.476279962,0.904931927 C0.222263982,0.904931927 0.0158759987,0.730295941 0.0158759987,0.523907958 C0.0158759987,0.317519974 0.222263982,0.142883989 0.476279962,0.142883989 L12.335651,0.142883989 C12.589667,0.142883989 12.796055,0.317519974 12.796055,0.523907958 C12.796055,0.730295941 12.589667,0.904931927 12.335651,0.904931927 Z" id="XMLID_7_"></path>
                    </g>
                    <g id="XMLID_61_" transform="translate(10.795679, 41.277597)" fill="#AFAFAF">
                        <line x1="0.460403963" y1="0.381023969" x2="10.7639271" y2="0.381023969" id="XMLID_6_"></line>
                        <path d="M10.7639271,0.762047939 L0.444527964,0.762047939 C0.222263982,0.762047939 0.0317519974,0.587411953 0.0317519974,0.381023969 C0.0317519974,0.174635986 0.206387983,9.02446045e-15 0.444527964,9.02446045e-15 L10.7639271,9.02446045e-15 C10.9861911,9.02446045e-15 11.1767031,0.174635986 11.1767031,0.381023969 C11.1767031,0.587411953 10.9861911,0.762047939 10.7639271,0.762047939 Z" id="XMLID_5_"></path>
                    </g>
                    <g id="XMLID_24_" transform="translate(12.383279, 43.023957)" fill="#AFAFAF">
                        <line x1="0.412775967" y1="0.396899968" x2="7.63635539" y2="0.396899968" id="XMLID_4_"></line>
                        <path d="M7.63635539,0.793799936 L0.412775967,0.793799936 C0.25401598,0.793799936 0.12700799,0.61916395 0.12700799,0.412775967 C0.12700799,0.206387983 0.25401598,0.0317519974 0.412775967,0.0317519974 L7.63635539,0.0317519974 C7.79511537,0.0317519974 7.92212336,0.206387983 7.92212336,0.412775967 C7.92212336,0.61916395 7.79511537,0.793799936 7.63635539,0.793799936 Z" id="XMLID_3_"></path>
                    </g>
                </g>
            </g>
        </g>
    </g>
</svg>