<?xml version="1.0" encoding="UTF-8"?>
<svg width="64px" height="64px" viewBox="0 0 64 64" version="1.1" xmlns="http://www.w3.org/2000/svg" xmlns:xlink="http://www.w3.org/1999/xlink">
    <!-- Generator: sketchtool 62 (101010) - https://sketch.com -->
    <title>6D0DB914-3E4C-4242-B116-90D233D03AEA</title>
    <desc>Created with sketchtool.</desc>
    <g id="RoomBooking_User_Web" stroke="none" stroke-width="1" fill="none" fill-rule="evenodd">
        <g id="037_MotherApp_Web_User_v1.8" transform="translate(-487.000000, -264.000000)">
            <g id="Group">
                <g id="Group-5" transform="translate(435.000000, 184.000000)">
                    <g id="ic_warning-copy" transform="translate(52.000000, 80.000000)">
                        <g id="Icon-24px">
                            <polygon id="Shape" points="0 0 64 0 64 64 0 64"></polygon>
                            <path d="M2.66666667,56 L61.3333333,56 L32,5.33333333 L2.66666667,56 L2.66666667,56 Z M34.6666667,48 L29.3333333,48 L29.3333333,42.6666667 L34.6666667,42.6666667 L34.6666667,48 L34.6666667,48 Z M34.6666667,37.3333333 L29.3333333,37.3333333 L29.3333333,26.6666667 L34.6666667,26.6666667 L34.6666667,37.3333333 L34.6666667,37.3333333 Z" id="Shape" fill="#F5A623"></path>
                        </g>
                    </g>
                </g>
            </g>
        </g>
    </g>
</svg>