<?xml version="1.0" encoding="UTF-8"?>
<svg width="68px" height="68px" viewBox="0 0 68 68" version="1.1" xmlns="http://www.w3.org/2000/svg" xmlns:xlink="http://www.w3.org/1999/xlink">
    <!-- Generator: sketchtool 63.1 (101010) - https://sketch.com -->
    <title>B185C470-0D2F-4C14-9DFB-C7C9AF2642D2</title>
    <desc>Created with sketchtool.</desc>
    <g id="VM_User_Web" stroke="none" stroke-width="1" fill="none" fill-rule="evenodd">
        <g id="01_VM_User_Web_v2.1" transform="translate(-162.000000, -396.000000)">
            <g id="Left-Nav-List-of-Visitor">
                <g id="Group-18">
                    <g id="Nav-/-Sub-/-My-Booking-1" transform="translate(0.000000, 5.000000)">
                        <g id="Group-2" transform="translate(162.000000, 391.000000)">
                            <path d="M33.9411255,5.40012479e-13 L43.882,9.941 L57.9411255,9.9411255 L57.941,24 L67.882251,33.9411255 L57.941,43.882 L57.9411255,57.9411255 L43.882,57.941 L33.9411255,67.882251 L24,57.941 L9.9411255,57.9411255 L9.941,43.882 L-1.38555833e-13,33.9411255 L9.941,24 L9.9411255,9.9411255 L24,9.941 L33.9411255,5.40012479e-13 Z M33.5,13 C22.1781626,13 13,22.1781626 13,33.5 C13,44.8218374 22.1781626,54 33.5,54 C44.8218374,54 54,44.8218374 54,33.5 C54,22.1781626 44.8218374,13 33.5,13 Z" id="Combined-Shape" fill="#99A6B3"></path>
                            <circle id="Oval" fill="#99A6B3" cx="27" cy="30" r="2"></circle>
                            <circle id="Oval-Copy" fill="#99A6B3" cx="40" cy="30" r="2"></circle>
                            <path d="M34,46 C38.9705627,46 43,41.9705627 43,37 C43,32.0294373 38.9705627,28 34,28 C29.0294373,28 25,32.0294373 25,37 C25,41.9705627 29.0294373,46 34,46 Z" id="Oval-Copy-13" stroke="#99A6B3" stroke-width="2" stroke-linecap="round" stroke-linejoin="round" stroke-dasharray="25,1534.9" transform="translate(34.000000, 37.000000) scale(1, -1) rotate(-96.000000) translate(-34.000000, -37.000000) "></path>
                        </g>
                    </g>
                </g>
            </g>
        </g>
    </g>
</svg>