<?xml version="1.0" encoding="UTF-8"?>
<svg width="18px" height="16px" viewBox="0 0 18 16" version="1.1" xmlns="http://www.w3.org/2000/svg" xmlns:xlink="http://www.w3.org/1999/xlink">
    <!-- Generator: sketchtool 62 (101010) - https://sketch.com -->
    <title>3CBA0F31-F712-4ACA-AA6A-ECD180BCF4FE</title>
    <desc>Created with sketchtool.</desc>
    <g id="RoomBooking_User_Web" stroke="none" stroke-width="1" fill="none" fill-rule="evenodd">
        <g id="014_MotherApp_Web_User_v1.8" transform="translate(-107.000000, -250.000000)">
            <g id="Nav-/-Sub-/-My-Booking-1" transform="translate(0.000000, 1.000000)">
                <g id="ic_favorite-copy" transform="translate(106.000000, 247.000000)">
                    <g id="Icon-24px">
                        <polygon id="Shape" points="0 0 20 0 20 20 0 20"></polygon>
                        <path d="M10,17.7916667 L8.79166667,16.6916667 C4.5,12.8 1.66666667,10.2333333 1.66666667,7.08333333 C1.66666667,4.51666667 3.68333333,2.5 6.25,2.5 C7.7,2.5 9.09166667,3.175 10,4.24166667 C10.9083333,3.175 12.3,2.5 13.75,2.5 C16.3166667,2.5 18.3333333,4.51666667 18.3333333,7.08333333 C18.3333333,10.2333333 15.5,12.8 11.2083333,16.7 L10,17.7916667 L10,17.7916667 Z" id="Shape" fill="#67717C"></path>
                    </g>
                </g>
            </g>
        </g>
    </g>
</svg>