<?xml version="1.0" encoding="UTF-8"?>
<svg width="180px" height="180px" viewBox="0 0 180 180" version="1.1" xmlns="http://www.w3.org/2000/svg" xmlns:xlink="http://www.w3.org/1999/xlink">
    <!-- Generator: sketchtool 62 (101010) - https://sketch.com -->
    <title>D8CEB680-E333-42A7-9089-FB366CAA281C</title>
    <desc>Created with sketchtool.</desc>
    <defs>
        <rect id="path-1" x="0" y="0" width="180" height="180" rx="4"></rect>
    </defs>
    <g id="RoomBooking_User_Web" stroke="none" stroke-width="1" fill="none" fill-rule="evenodd">
        <g id="08_MotherApp_Web_User_v1.8" transform="translate(-845.000000, -301.000000)">
            <g id="Group-11">
                <g id="Group-10" transform="translate(340.000000, 193.000000)">
                    <g id="Path-Copy" transform="translate(505.000000, 108.000000)">
                        <mask id="mask-2" fill="white">
                            <use xlink:href="#path-1"></use>
                        </mask>
                        <use id="Mask" fill="#556080" xlink:href="#path-1"></use>
                        <path d="M57.1018897,158.577142 L23.4076175,176.776964 C21.4303641,177.844563 19.6533929,179.156908 18,180.587406 C90.7151968,180.958745 54.460892,180.865899 90.7151968,180.958745 C126.960892,181.051569 123.721971,180.958745 163,180.958745 C161.1932,179.448071 159.232991,178.089309 157.059717,177.01749 L120.979105,159.155249 C116.317219,156.847041 113.372645,152.12935 113.372645,146.968584 L113.372645,132.950544 C114.38684,131.806989 115.545919,130.338513 116.785964,128.604192 C121.70353,121.725985 125.423664,114.159956 128.001763,106.222589 C132.629559,104.80897 136.038616,100.576551 136.038616,95.5465984 L136.038616,80.5833321 C136.038616,77.2919199 134.559938,74.3507477 132.263085,72.2915052 L132.263085,50.6610194 C132.263085,50.6610194 136.750257,17 90.7151968,17 C44.6801364,17 49.1673083,50.6610194 49.1673083,50.6610194 L49.1673083,72.2915052 C46.8661945,74.3507477 45.3917771,77.2919199 45.3917771,80.5833321 L45.3917771,95.5465984 C45.3917771,99.4878535 47.4840862,102.956496 50.6161578,104.960881 C54.391689,121.236493 64.2779557,132.950544 64.2779557,132.950544 L64.2779557,146.622564 C64.2736944,151.60188 61.5208805,156.188758 57.1018897,158.577142 Z" fill="#E7ECED" fill-rule="nonzero" opacity="0.800000012" mask="url(#mask-2)"></path>
                    </g>
                </g>
            </g>
        </g>
    </g>
</svg>