<?xml version="1.0" encoding="UTF-8"?>
<svg width="180px" height="180px" viewBox="0 0 180 180" version="1.1" xmlns="http://www.w3.org/2000/svg" xmlns:xlink="http://www.w3.org/1999/xlink">
    <!-- Generator: sketchtool 63.1 (101010) - https://sketch.com -->
    <title>AF1990BD-0C7C-4FBF-8148-53071DA21A23</title>
    <desc>Created with sketchtool.</desc>
    <defs>
        <circle id="path-1" cx="46.5" cy="46.5" r="46.5"></circle>
    </defs>
    <g id="VM_User_Web" stroke="none" stroke-width="1" fill="none" fill-rule="evenodd">
        <g id="10_1_VM_User_Web_v2.1" transform="translate(-630.000000, -335.000000)">
            <g id="Group-2" transform="translate(630.000000, 335.000000)">
                <circle id="Oval" stroke="#FF0000" stroke-width="3" cx="90" cy="90" r="88.5"></circle>
                <g id="remove-friend" transform="translate(44.000000, 43.000000)">
                    <mask id="mask-2" fill="white">
                        <use xlink:href="#path-1"></use>
                    </mask>
                    <use id="Mask" fill="#2C3E50" fill-rule="nonzero" xlink:href="#path-1"></use>
                    <g mask="url(#mask-2)">
                        <g transform="translate(18.000000, 16.000000)">
                            <path d="M28.6478021,76 L1.35219625,76 C1.14173281,76 0.978130904,75.7404094 1.00238864,75.4443474 L2.01942186,62.9955057 C2.4848672,57.2979699 5.89418197,53 9.94798072,53 L20.0520176,53 C24.1058163,53 27.5152689,57.2979699 27.9805764,62.9955057 L28.9976097,75.4443474 C29.0218674,75.7404094 28.8584033,76 28.6478021,76 Z" id="Path" fill="#75DC5E" fill-rule="nonzero"></path>
                            <g id="Group" stroke-width="1" fill="none" fill-rule="evenodd" transform="translate(5.000000, 53.000000)">
                                <path d="M23.9072254,7.45942857 C23.4192197,3.28614286 19.8446532,0.138 15.5943642,0.138 L12.6289017,0.138 C16.8791908,0.138 20.4539017,3.28614286 20.941763,7.45942857 L22.0557803,16.9848571 L24.6067919,16.9848571 C24.8274566,16.9848571 24.9989884,16.7947143 24.9735549,16.5778571 L23.9072254,7.45942857 Z" id="Path" fill="#2AAD52" fill-rule="nonzero"></path>
                                <path d="M20.5479769,16.9848571 L20.5479769,9.73814286 C20.5479769,9.137 20.0549133,8.64957143 19.4468208,8.64957143 C18.8387283,8.64957143 18.3456647,9.137 18.3456647,9.73814286 L18.3456647,16.9848571 L20.5479769,16.9848571 Z" id="Path" fill="#2AAD52" fill-rule="nonzero"></path>
                                <path d="M2.24956647,23 L2.24956647,14.3059797 C2.24956647,13.5847773 1.75650289,13 1.1484104,13 C0.540317919,13 0.0472543353,13.5847773 0.0472543353,14.3059797 L0.0472543353,23 L2.24956647,23 Z" id="Path" fill="#2AAD52" fill-rule="nonzero"></path>
                            </g>
                            <path d="M10,47 L10,53.3569983 C10,55.3689766 11.7908565,57 14,57 L14,57 C16.2091435,57 18,55.3689766 18,53.3569983 L18,47 L10,47 Z" id="Path" fill="#B05A3D" fill-rule="nonzero"></path>
                            <path d="M26.6836208,35.2852908 L24.4173912,35.2852908 L24.4173912,29.9695962 C24.4173912,26.1204125 21.2096349,23 17.2527083,23 L11.7474313,23 C7.79050477,23 4.58274847,26.1204125 4.58274847,29.9695962 L4.58274847,35.2852908 L2.31637917,35.2852908 C1.03707629,35.2852908 0,36.2941286 0,37.5385974 L0,38.6043726 C0,39.8488414 1.03707629,40.8576792 2.31637917,40.8576792 L4.5969971,40.8576792 C4.86730187,45.9511958 9.19762619,50 14.4999302,50 C17.151152,50 19.55889,48.9883085 21.3382916,47.3391631 C23.1176932,45.6900177 24.2669425,43.4036901 24.4030029,40.8576792 L26.6836208,40.8576792 C27.9629237,40.8576792 29,39.8488414 29,38.6043726 L29,37.5385974 C29,36.2941286 27.9629237,35.2852908 26.6836208,35.2852908 Z" id="Path" fill="#D7875F" fill-rule="nonzero"></path>
                            <g id="Group" stroke-width="1" fill="none" fill-rule="evenodd" transform="translate(3.000000, 18.000000)">
                                <path d="M8.23972028,26.9233085 C8.10685315,26.9233085 7.97202797,26.8976011 7.84125874,26.8434574 C7.29538462,26.6172606 7.03146853,25.9794574 7.25174825,25.4190638 C7.50685315,24.7699149 7.88251748,24.1879787 8.36825175,23.6891968 C9.33146853,22.7024043 10.608951,22.1595319 11.9661538,22.1595319 C14.047972,22.1595319 15.8981818,23.4382979 16.68,25.4173404 C16.9012587,25.9774468 16.6383217,26.6155372 16.0928671,26.842883 C15.547972,27.0700851 14.926014,26.8002287 14.7046154,26.2399787 C14.2507692,25.0908989 13.1758042,24.3482553 11.966014,24.3482553 C11.1772028,24.3482553 10.4344056,24.6642128 9.87440559,25.2378191 C9.59314685,25.5264894 9.37552448,25.8634149 9.22825175,26.2381117 C9.06083916,26.6645106 8.6613986,26.9233085 8.23972028,26.9233085 Z" id="Path" fill="#475D6D" fill-rule="nonzero"></path>
                                <path d="M6.99566434,18.8214415 C6.40713287,18.8214415 5.92993007,18.3314202 5.92993007,17.7270798 L5.92993007,17.2344734 C5.92993007,16.630133 6.40713287,16.1401117 6.99566434,16.1401117 C7.5841958,16.1401117 8.06139863,16.630133 8.06139863,17.2344734 L8.06139863,17.7270798 C8.06153846,18.3315638 7.58433566,18.8214415 6.99566434,18.8214415 Z" id="Path" fill="#475D6D" fill-rule="nonzero"></path>
                                <path d="M16.9367832,18.8214415 C16.3482517,18.8214415 15.871049,18.3314202 15.871049,17.7270798 L15.871049,17.2344734 C15.871049,16.630133 16.3482517,16.1401117 16.9367832,16.1401117 C17.5253147,16.1401117 18.0025175,16.630133 18.0025175,17.2344734 L18.0025175,17.7270798 C18.0025175,18.3315638 17.5253147,18.8214415 16.9367832,18.8214415 Z" id="Path" fill="#475D6D" fill-rule="nonzero"></path>
                                <path d="M0.895664336,12.1945213 L3.91470089,12.1945213 C4.76881033,12.1945213 5.543055,11.7067979 5.89120628,10.9495053 L6.6744727,9.2457766 C6.88744545,8.78246809 7.49145981,8.63583511 7.90394661,8.94734043 L11.6170673,11.75175 C11.9970165,12.0386968 12.4645213,12.1945213 12.9459284,12.1945213 L21.8956643,12.1945213 L21.8956643,5.86330851 C21.8956643,2.69899468 19.2540628,0.133851064 15.9954319,0.133851064 L8.82194788,0.133851064 C7.74939347,0.133851064 6.88005056,0.978175532 6.88005056,2.01954255 L6.88005056,3.02845213 L3.75156968,3.02845213 C2.17424029,3.02845213 0.895664336,4.27002128 0.895664336,5.80169681 L0.895664336,12.1945213 L0.895664336,12.1945213 Z" id="Path" fill="#475D6D" fill-rule="nonzero"></path>
                            </g>
                            <path d="M20,11.4208926 L20,27 L56,27 L56,10.0568996 C56,6.62905801 53.1131928,3.85030031 49.5520627,3.85030031 L46.9342453,3.85030031 L46.7360572,3.4575382 C45.669339,1.34264426 43.4415001,0 40.9991233,0 L31.8649838,0 C25.3121233,0 20,5.11329735 20,11.4208926 Z" id="Path" fill="#F9DC6A" fill-rule="nonzero"></path>
                            <path d="M49.3551352,3.85030031 L46.6574262,3.85030031 L46.4531897,3.4575382 C45.3539169,1.34264426 43.0580878,0 40.5411735,0 L37,0 C39.5169143,0 41.8127434,1.34264426 42.9121627,3.4575382 L43.1163992,3.85030031 L45.8141082,3.85030031 C49.4839185,3.85030031 52.4588265,6.62905801 52.4588265,10.0568996 L52.4588265,27 L56,27 L56,10.0568996 C56,6.62905801 53.0249454,3.85030031 49.3551352,3.85030031 Z" id="Path" fill="#E5AC51" fill-rule="nonzero" opacity="0.300000012"></path>
                            <path d="M57.4967441,79 L18.50314,79 C18.2023289,79 17.9688232,78.6500653 18.0034008,78.2511169 L19.4563727,61.4721073 C20.1211738,53.7929207 24.9916391,48 30.7828938,48 L45.2171326,48 C51.0083873,48 55.8788526,53.7929207 56.5436537,61.4721073 L57.9966256,78.2511169 C58.0310609,78.6500653 57.7975552,79 57.4967441,79 Z" id="Path" fill="#2BB4F3" fill-rule="nonzero"></path>
                            <path d="M26,79 L26,67.2730521 C26,66.5700333 25.552231,66 25,66 C24.447769,66 24,66.5700333 24,67.2730521 L24,79 L26,79 Z" id="Path" fill="#1687C4" fill-rule="nonzero"></path>
                            <path d="M32,41 L32,51.0259955 C32,53.7730654 34.2385732,56 37,56 L37,56 C39.7614268,56 42,53.7730654 42,51.0259955 L42,41 L32,41 L32,41 Z" id="Path" fill="#F2A077" fill-rule="nonzero"></path>
                            <path d="M58,27.9434825 L58,29.4880249 C58,31.2909871 56.5340219,32.7525676 54.725635,32.7525676 L51.5007972,32.7525676 C51.3092538,36.4421655 49.6844174,39.7558024 47.1685187,42.1457591 C44.6524772,44.5341504 41.2485135,46 37.5,46 C30.002973,46 23.8807196,40.1347518 23.4992028,32.7525676 L20.274365,32.7525676 C18.4659781,32.7525676 17,31.2909871 17,29.4880249 L17,27.9434825 C17,26.1405202 18.4659781,24.6789397 20.274365,24.6789397 L23.4792206,24.6789397 L23.4792206,18.8430056 L35.2498642,18.8430056 C40.8495836,18.8430056 45.5025761,14.8067608 46.4403111,9.49222006 C46.5216671,9.03087802 47.0736033,8.84047838 47.4220069,9.15468048 C49.939761,11.425246 51.5212076,14.7088573 51.5212076,18.3610298 L51.5212076,24.679082 L54.7260632,24.679082 C56.5340219,24.679082 58,26.1405202 58,27.9434825 Z" id="Path" fill="#FFCCAA" fill-rule="nonzero"></path>
                            <path d="M54.6399376,24.679082 L51.3509171,24.679082 L51.3509171,18.3610298 C51.3509171,14.7088573 49.7280856,11.4253883 47.1440645,9.15468048 C46.7865113,8.84047838 46.2202267,9.03087802 46.1365877,9.49222006 C45.9945039,10.2770138 45.7671698,11.0330626 45.4679149,11.7532514 C46.7088778,13.6664975 47.4273532,15.9319402 47.4273532,18.3610298 L47.4273532,24.679082 L47.4066998,32.7525676 C47.2101261,36.4421655 45.5426188,39.7558024 42.9606483,42.1457591 C40.8252898,44.1209063 38.0663737,45.4642342 35,45.8702209 C35.6414278,45.955175 36.2960387,46 36.9616355,46 C40.8085913,46 44.3020953,44.5340081 46.8840657,42.1457591 C49.4661827,39.7559447 51.1335435,36.4421655 51.3301172,32.7525676 L54.6396446,32.7525676 C56.4955229,32.7525676 58,31.2909871 58,29.4880249 L58,27.9434825 C58.000293,26.1406625 56.4958158,24.679082 54.6399376,24.679082 Z" id="Path" fill="#F2A077" fill-rule="nonzero" opacity="0.300000012"></path>
                            <g id="Group" stroke-width="1" fill="none" fill-rule="evenodd" transform="translate(30.000000, 23.000000)">
                                <path d="M2.85203478,13.8741414 C2.71986087,13.8741414 2.58573913,13.8488283 2.45565217,13.7955152 C1.91262609,13.5727879 1.65008696,12.9447677 1.86921739,12.3929697 C2.1997913,11.5604646 2.6866087,10.813798 3.31645217,10.1736162 C4.56542609,8.90725253 6.22191304,8.21050505 7.98149565,8.21050505 C10.6807652,8.21050505 13.0796522,9.85147475 14.0930783,12.3912727 C14.3131826,12.9427879 14.0516174,13.5710909 13.5091478,13.7949495 C12.9661217,14.0188081 12.3483826,13.7528081 12.1281391,13.2012929 C11.4408348,11.4787273 9.81314783,10.365798 7.98149565,10.365798 C6.7872,10.365798 5.66274783,10.8391111 4.81488696,11.6986263 C4.38873043,12.1317778 4.05885217,12.6371919 3.83554783,13.199596 C3.66873043,13.6193131 3.27151304,13.8741414 2.85203478,13.8741414 Z" id="Path" fill="#475D6D" fill-rule="nonzero"></path>
                                <path d="M1.13947826,2.83549495 C0.554017391,2.83549495 0.0793043478,2.3529899 0.0793043478,1.75791919 L0.0793043478,1.08676768 C0.0793043478,0.49169697 0.554017391,0.00919191919 1.13947826,0.00919191919 C1.72493913,0.00919191919 2.19965217,0.49169697 2.19965217,1.08676768 L2.19965217,1.75791919 C2.19965217,2.3529899 1.72493913,2.83549495 1.13947826,2.83549495 Z" id="Path" fill="#475D6D" fill-rule="nonzero"></path>
                                <path d="M14.8233739,2.83549495 C14.2377739,2.83549495 13.7632,2.3529899 13.7632,1.75791919 L13.7632,1.08676768 C13.7632,0.49169697 14.2377739,0.00919191919 14.8233739,0.00919191919 C15.4089739,0.00919191919 15.8835478,0.49169697 15.8835478,1.08676768 L15.8835478,1.75791919 C15.8835478,2.3529899 15.4089739,2.83549495 14.8233739,2.83549495 Z" id="Path" fill="#475D6D" fill-rule="nonzero"></path>
                            </g>
                        </g>
                    </g>
                </g>
                <circle id="Oval" fill="#D2F5FF" fill-rule="nonzero" cx="120" cy="119" r="13"></circle>
                <path d="M127.543937,117 L112.455925,117 C112.204176,117 112,117.24193 112,117.540593 L112,121.459407 C112,121.757907 112.204039,122 112.455925,122 L127.544075,122 C127.795824,122 128,121.75807 128,121.459407 L128,117.540593 C128,117.24193 127.795824,117 127.543937,117 Z" id="Path" fill="#FF0000" fill-rule="nonzero"></path>
            </g>
        </g>
    </g>
</svg>